G04 start of page 3 for group 1 idx 1 *
G04 Title: 26.006.00.01.01.pcb, solder *
G04 Creator: pcb 20100929 *
G04 CreationDate: Wed Mar 18 07:56:07 2015 UTC *
G04 For: bert *
G04 Format: Gerber/RS-274X *
G04 PCB-Dimensions: 620000 170000 *
G04 PCB-Coordinate-Origin: lower left *
%MOIN*%
%FSLAX25Y25*%
%LNBACK*%
%ADD11C,0.0200*%
%ADD12C,0.0250*%
%ADD13C,0.0600*%
%ADD14C,0.0720*%
%ADD15C,0.0500*%
%ADD16C,0.0540*%
%ADD17C,0.0380*%
%ADD18C,0.0400*%
%ADD19C,0.0520*%
%ADD20C,0.0300*%
%ADD21C,0.0280*%
%ADD22C,0.0320*%
%ADD23C,0.0350*%
G54D12*X200000Y65000D02*X180000D01*
X175000Y55000D02*X210000D01*
X205000Y70000D02*X200000Y65000D01*
X60000Y40000D02*X365000D01*
X77500Y25000D02*X382500D01*
X85000Y15000D02*X352500D01*
X65000D02*Y27500D01*
X70000Y32500D01*
X375000D01*
X145000Y72500D02*Y80000D01*
X140000Y67500D02*X145000Y72500D01*
X97500Y67500D02*X140000D01*
X92500Y95000D02*X115000D01*
X120000Y90000D01*
Y85000D01*
X295000D02*Y75000D01*
X305000Y142500D02*Y40000D01*
X337500Y130000D02*Y72500D01*
X275000Y125000D02*Y115000D01*
X252500Y120000D02*X250000D01*
X245000Y125000D01*
X345000Y120000D02*X362500D01*
X285000Y115000D02*Y85000D01*
X252500Y65000D02*X266063D01*
Y76063D01*
X275000Y85000D01*
X252500Y97500D02*X285000D01*
X272500Y145000D02*Y152500D01*
X287500Y147500D02*X300000D01*
X305000Y142500D01*
X275000Y125000D02*X282500Y132500D01*
Y142500D01*
X287500Y147500D01*
X357185Y135158D02*X357027Y135000D01*
X342500D01*
X337500Y130000D01*
X247500Y45000D02*X252500Y50000D01*
Y80000D02*Y50000D01*
X220000Y45000D02*X247500D01*
X210000Y55000D02*X220000Y45000D01*
Y65000D02*X252500Y97500D01*
X207500Y92500D02*X215000Y85000D01*
X230000D02*X215251D01*
X220000Y100000D02*X225000Y105000D01*
X202500Y132500D02*X195000Y125000D01*
Y115000D01*
X220000Y132500D02*X202500D01*
X205000Y125000D02*Y115000D01*
X195000Y105000D02*X205000Y115000D01*
X225000Y105000D02*Y127500D01*
X220000Y132500D01*
X267500Y157500D02*X27500D01*
X327500Y162500D02*X25000D01*
X27500Y157500D02*X22500Y152500D01*
X25000Y162500D02*X17500Y155000D01*
X22500Y152500D02*Y32500D01*
X17500Y155000D02*Y42500D01*
X22500Y32500D02*X15000Y25000D01*
Y15000D01*
X17500Y42500D02*X12500Y37500D01*
X205000Y85000D02*Y70000D01*
X362500Y80000D02*X367500Y85000D01*
X380000D01*
X340000Y70000D02*Y62500D01*
X380000D02*Y95000D01*
X340000Y70000D02*X337500Y72500D01*
X352500Y15000D02*X345000D01*
X110000Y125000D02*Y115000D01*
X99764Y150000D02*X120000D01*
Y115000D01*
X130000Y105000D01*
Y75000D02*Y85000D01*
X110000Y115000D02*X125000Y100000D01*
X70236Y150000D02*Y140000D01*
X52185Y135158D02*X52027Y135000D01*
X37500D01*
X32500Y130000D01*
X92500Y95000D02*Y72500D01*
X97500Y67500D01*
X160000Y80000D02*X175000D01*
X130000Y85000D02*X137500Y92500D01*
X207500D01*
X175000Y80000D02*X180000Y75000D01*
Y65000D01*
X170000D02*Y60000D01*
X175000Y55000D01*
X152500Y72500D02*Y50000D01*
X157500Y45000D01*
X180000D01*
X170000Y120000D02*Y112500D01*
X145000Y120000D02*Y127500D01*
X160000Y142500D01*
Y150000D01*
Y110000D02*Y120000D01*
X170000Y112500D02*X177500Y105000D01*
X195000D01*
X130000D02*X155000D01*
X160000Y110000D01*
X125000Y100000D02*X220000D01*
X67500Y102500D02*X75000Y95000D01*
X40000Y120000D02*X57500D01*
Y80000D02*X62500Y85000D01*
X75000D01*
Y114764D02*X92500Y95000D01*
X32500Y130000D02*Y72500D01*
X35000Y70000D02*X32500Y72500D01*
X35000Y70000D02*Y62500D01*
X55000Y35000D02*X60000Y40000D01*
X70236Y140000D02*X67736Y137500D01*
X67500Y102500D01*
X75000Y62500D02*Y95000D01*
Y15000D02*Y22500D01*
X55000Y15000D02*Y35000D01*
X75000Y22500D02*X77500Y25000D01*
X415000Y125000D02*Y115000D01*
X372500Y102500D02*X380000Y95000D01*
X372736Y137500D02*X372500Y102500D01*
X380000Y114764D02*X397500Y95000D01*
X420000D01*
X425000Y115000D02*X435000Y105000D01*
Y85000D02*X442500Y92500D01*
X435000Y75000D02*Y85000D01*
X402500Y67500D02*X445000D01*
X450000Y72500D01*
X415000Y115000D02*X430000Y100000D01*
X420000Y95000D02*X425000Y90000D01*
Y85000D01*
X397500Y95000D02*Y72500D01*
X402500Y67500D01*
X272500Y152500D02*X267500Y157500D01*
X332500Y162500D02*X327500D01*
X404764Y150000D02*X425000D01*
Y115000D01*
X375236Y150000D02*Y140000D01*
X372736Y137500D01*
X572500Y162500D02*X332500D01*
X590000Y115000D02*Y85000D01*
X580000Y125000D02*Y115000D01*
Y125000D02*X587500Y132500D01*
Y142500D01*
X577500Y145000D02*Y157500D01*
X572500Y162500D01*
X600000Y85000D02*Y75000D01*
X610000Y142500D02*Y45000D01*
X557500Y80000D02*Y50000D01*
Y120000D02*X555000D01*
X550000Y125000D01*
X557500Y65000D02*X571063D01*
Y76063D01*
X580000Y85000D01*
X525000Y65000D02*X557500Y97500D01*
X590000D01*
X535000Y85000D02*X520251D01*
X525000Y100000D02*X530000Y105000D01*
Y127500D01*
X525000Y132500D01*
X605000Y147500D02*X610000Y142500D01*
X592500Y147500D02*X605000D01*
X587500Y142500D02*X592500Y147500D01*
X552500Y45000D02*X557500Y50000D01*
X525000Y45000D02*X552500D01*
X515000Y55000D02*X525000Y45000D01*
X365000Y40000D02*X605000D01*
X382500Y25000D02*X475000D01*
X375000Y32500D02*X457500D01*
X610000Y45000D02*X605000Y40000D01*
X505000Y65000D02*X485000D01*
X465000Y80000D02*X480000D01*
X485000Y75000D01*
Y65000D01*
X450000Y72500D02*Y80000D01*
X475000Y65000D02*Y60000D01*
X457500Y72500D02*Y50000D01*
X462500Y45000D01*
X485000D01*
X475000Y60000D02*X480000Y55000D01*
X475000Y120000D02*Y112500D01*
X482500Y105000D01*
X480000Y55000D02*X515000D01*
X510000Y85000D02*Y70000D01*
X505000Y65000D01*
X512500Y92500D02*X520000Y85000D01*
X460000Y105000D02*X465000Y110000D01*
Y120000D01*
X507500Y132500D02*X500000Y125000D01*
Y115000D01*
X510000Y125000D02*Y115000D01*
X482500Y105000D02*X500000D01*
X510000Y115000D01*
X525000Y132500D02*X507500D01*
X450000Y120000D02*Y127500D01*
X465000Y142500D01*
Y150000D01*
X435000Y105000D02*X460000D01*
X442500Y92500D02*X512500D01*
X430000Y100000D02*X525000D01*
G54D13*X15000Y15000D03*
X25000D03*
X35000D03*
X45000D03*
X40000Y80000D03*
X55000Y15000D03*
X65000D03*
X57500Y80000D03*
X35000Y62500D03*
G54D14*X10315Y135158D03*
G54D13*X40000Y120000D03*
X57500D03*
G54D14*X30000Y145000D03*
G54D13*X70236Y150000D03*
X99764D03*
X160000D03*
X120000D03*
X130000Y115000D03*
X120000D03*
X110000D03*
X100000D03*
X75000Y114764D03*
X160000Y120000D03*
X145000D03*
G54D15*X130000Y125000D03*
X110000D03*
G54D13*X75000Y15000D03*
Y62500D03*
X85000Y15000D03*
X100000Y85000D03*
G54D15*X130000Y55000D03*
Y75000D03*
X600000Y55000D03*
Y75000D03*
G54D13*Y85000D03*
G54D15*Y125000D03*
G54D14*X597185Y135158D03*
G54D13*X570000Y85000D03*
X580000D03*
X590000D03*
X557500Y80000D03*
X600000Y115000D03*
X590000D03*
X580000D03*
X570000D03*
G54D11*G36*
X568363Y67700D02*Y62300D01*
X573763D01*
Y67700D01*
X568363D01*
G37*
G54D16*X578937Y65000D03*
G54D13*X550000Y125000D03*
X557500Y120000D03*
G54D15*X580000Y125000D03*
G54D14*X557815Y135158D03*
X577500Y145000D03*
G54D13*X405000Y85000D03*
X415000D03*
X425000D03*
X380000Y85236D03*
X435000Y85000D03*
Y115000D03*
X425000D03*
X415000D03*
G54D15*X435000Y55000D03*
Y75000D03*
G54D13*X405000Y115000D03*
X380000Y114764D03*
X450000Y80000D03*
Y120000D03*
X490000Y85000D03*
X500000D03*
X510000D03*
X520000D03*
G54D15*X500000Y145000D03*
Y125000D03*
G54D13*X485000Y45000D03*
Y65000D03*
X525000Y45000D03*
Y65000D03*
G54D15*X535000D03*
Y85000D03*
G54D13*X475000Y25000D03*
X457500Y32500D03*
X475000Y65000D03*
Y80000D03*
X465000D03*
X457500Y72500D03*
X475000Y120000D03*
X375236Y150000D03*
X404764D03*
X465000D03*
X425000D03*
G54D14*X335000Y145000D03*
G54D13*X520000Y115000D03*
X510000D03*
X500000D03*
X490000D03*
X510000Y125000D03*
X465000Y120000D03*
G54D15*X435000Y125000D03*
X415000D03*
G54D13*X345000Y80000D03*
X362500D03*
X340000Y62500D03*
X380000D03*
X345000Y120000D03*
X362500D03*
X265000Y85000D03*
X275000D03*
X285000D03*
X252500Y80000D03*
X295000Y85000D03*
G54D15*Y55000D03*
Y75000D03*
G54D11*G36*
X263363Y67700D02*Y62300D01*
X268763D01*
Y67700D01*
X263363D01*
G37*
G54D16*X273937Y65000D03*
G54D14*X49685Y135158D03*
X315315D03*
X354685D03*
X252815D03*
X292185D03*
G54D13*X295000Y115000D03*
X285000D03*
X275000D03*
X265000D03*
X215000D03*
X245000Y125000D03*
X252500Y120000D03*
G54D15*X295000Y125000D03*
X275000D03*
G54D13*X205000Y115000D03*
X195000D03*
G54D15*Y125000D03*
G54D13*X205000D03*
X185000Y115000D03*
G54D15*X195000Y145000D03*
G54D13*X170000Y120000D03*
G54D14*X272500Y145000D03*
G54D13*X110000Y85000D03*
X120000D03*
X130000D03*
X185000D03*
X195000D03*
X75000Y85236D03*
X205000Y85000D03*
X215000D03*
X220000Y65000D03*
X180000Y45000D03*
X220000D03*
X170000Y25000D03*
X152500Y32500D03*
X170000Y65000D03*
Y80000D03*
X180000Y65000D03*
X160000Y80000D03*
X145000D03*
X152500Y72500D03*
G54D15*X230000Y65000D03*
Y85000D03*
G54D13*X352500Y15000D03*
X12500Y37500D03*
G54D17*G54D18*G54D17*G54D18*G54D19*G54D18*G54D19*G54D20*G54D18*G54D21*G54D20*G54D18*G54D11*G54D17*G54D18*G54D17*G54D21*G54D11*G54D21*G54D11*G54D19*G54D21*G54D18*G54D21*G54D22*G54D18*G54D11*G54D19*G54D21*G54D20*G54D21*G54D11*G54D21*G54D20*G54D18*G54D21*G54D11*G54D18*G54D11*G54D22*G54D18*G54D22*G54D20*G54D18*G54D19*G54D21*G54D22*G54D18*G54D11*G54D18*G54D21*G54D18*G54D21*G54D11*G54D22*G54D19*G54D21*G54D22*G54D18*G54D11*G54D21*G54D11*G54D22*G54D21*G54D11*G54D22*G54D19*G54D21*G54D20*G54D21*G54D18*G54D22*G54D18*G54D22*G54D11*G54D23*M02*
