v 20110115 2
C 500 500 0 0 0 A3-sheet_000.sym
{
T 15900 2200 5 10 0 0 0 0 1
device=none
T 10000 1200 5 10 1 1 0 0 1
device=OCTAVE_FILTER
T 10000 900 5 10 1 1 0 0 1
file=26.000.00.00.01.sch
T 10000 600 5 10 1 1 0 0 1
page=01
T 11500 600 5 10 1 1 0 0 1
pages=01
T 13900 900 5 10 1 1 0 0 1
revision=20130310
T 13900 600 5 10 1 1 0 0 1
author=Bert Timmerman
T 10000 1400 5 10 1 1 0 0 1
comment=Front Page
T 10000 1600 5 10 1 1 0 0 1
description=Octave Filter
}
C 9400 1900 0 0 0 rev_header.sym
{
T 9500 2900 15 10 0 0 0 0 1
symversion=20120310
}
C 9400 2300 0 0 0 rev_entry.sym
{
T 9500 3300 15 10 0 0 0 0 1
symversion=20120310
T 9500 2500 15 10 1 1 0 1 1
revision=00
T 10100 2500 15 10 1 1 0 1 1
date=20120929
T 11300 2500 15 10 1 1 0 1 1
author=BTI
T 12300 2500 15 10 1 1 0 1 1
description=FIRST ISSUE.
}
C 500 11800 0 0 0 list_header.sym
C 500 11500 1 0 0 list_entry.sym
{
T 3400 11600 15 10 1 1 0 0 1
description=Octave Filter | block diagram
T 600 11600 15 10 1 1 0 0 1
source=26.000.00.01.01.sch
}
C 500 9100 1 0 0 list_entry.sym
{
T 3400 9200 15 10 1 1 0 0 1
description=Octave Filter main pcb (DFM) | schematic
T 600 9200 15 10 1 1 0 0 1
source=26.003.00.01.01.sch.
}
C 500 9400 1 0 0 list_entry.sym
{
T 3400 9500 15 10 1 1 0 0 1
description=Octave Filter front pcb (DFM) | schematic
T 600 9500 15 10 1 1 0 0 1
source=26.002.00.01.01.sch
}
C 500 11200 1 0 0 list_entry.sym
{
T 3400 11300 15 10 1 1 0 0 1
description=Octave Filter | schematic
T 600 11300 15 10 1 1 0 0 1
source=26.000.00.01.02.sch
}
C 500 10900 1 0 0 list_entry.sym
{
T 3400 11000 15 10 1 1 0 0 1
description=Octave Filter 31.5 Hz and 63 Hz module | schematic
T 600 11000 15 10 1 1 0 0 1
source=26.000.00.01.03.sch
}
C 500 10600 1 0 0 list_entry.sym
{
T 3400 10700 15 10 1 1 0 0 1
description=Octave Filter 125 Hz and 250 Hz module | schematic
T 600 10700 15 10 1 1 0 0 1
source=26.000.00.01.04.sch
}
C 500 10300 1 0 0 list_entry.sym
{
T 3400 10400 15 10 1 1 0 0 1
description=Octave Filter 500 Hz and 1 kHz module | schematic
T 600 10400 15 10 1 1 0 0 1
source=26.000.00.01.05.sch
}
C 500 10000 1 0 0 list_entry.sym
{
T 3400 10100 15 10 1 1 0 0 1
description=Octave Filter 2 kHz and 4 kHz module | schematic
T 600 10100 15 10 1 1 0 0 1
source=26.000.00.01.06.sch
}
C 500 9700 1 0 0 list_entry.sym
{
T 3400 9800 15 10 1 1 0 0 1
description=Octave Filter 8 kHz and 16 kHz module | schematic
T 600 9800 15 10 1 1 0 0 1
source=26.000.00.01.07.sch
}
C 500 8800 1 0 0 list_entry.sym
{
T 3400 8900 15 10 1 1 0 0 1
description=Octave Filter 31.5 Hz and 63 Hz module (DFM - PTH) | schematic
T 600 8900 15 10 1 1 0 0 1
source=26.006.00.01.01.sch
}
C 500 8500 1 0 0 list_entry.sym
{
T 3400 8600 15 10 1 1 0 0 1
description=Octave Filter 31.5 Hz module (for simulation) | schematic
T 600 8600 15 10 1 1 0 0 1
source=26.006.00.01.51.sch
}
C 500 8200 1 0 0 list_entry.sym
{
T 3400 8300 15 10 1 1 0 0 1
description=Octave Filter 63 Hz module (for simulation) | schematic
T 600 8300 15 10 1 1 0 0 1
source=26.006.00.01.52.sch
}
C 500 7600 1 0 0 list_entry.sym
{
T 3400 7700 15 10 1 1 0 0 1
description=Octave Filter 31.5 Hz and 63 Hz module (DFM - PTH+SMT) | schematic
T 600 7700 15 10 1 1 0 0 1
source=26.006.01.01.01.sch
}
C 500 7300 1 0 0 list_entry.sym
{
T 3400 7400 15 10 1 1 0 0 1
description=Octave Filter 125 Hz and 250 Hz module (DFM - PTH+SMT) | schematic
T 600 7400 15 10 1 1 0 0 1
source=26.007.01.01.01.sch
}
C 500 7000 1 0 0 list_entry.sym
{
T 3400 7100 15 10 1 1 0 0 1
description=Octave Filter 500 Hz and 1 kHz module (DFM - PTH+SMT) | schematic
T 600 7100 15 10 1 1 0 0 1
source=26.008.01.01.01.sch
}
C 9400 2700 0 0 0 rev_entry.sym
{
T 9500 3700 15 10 0 0 0 0 1
symversion=20120310
T 9500 2900 15 10 1 1 0 1 1
revision=01
T 10100 2900 15 10 1 1 0 1 1
date=20130310
T 11300 2900 15 10 1 1 0 1 1
author=BTI
T 12300 2900 15 10 1 1 0 1 1
description=MODIFIED TITLES.
}
C 500 7900 1 0 0 list_entry.sym
{
T 3400 8000 15 10 1 1 0 0 1
description=Octave Filter 63 Hz module BPF (for simulation) | schematic
T 600 8000 15 10 1 1 0 0 1
source=26.006.00.01.53.sch
}
