v 20110115 2
N 2000 10500 24600 10500 4
N 6000 13400 7300 13400 4
{
T 6800 13600 5 10 1 1 0 7 1
netname=PREAMP
}
C 7300 13300 1 0 0 resistor-2.sym
{
T 7500 13600 5 10 1 1 0 0 1
refdes=R251
T 7500 13100 5 10 1 1 0 0 1
value=12k
T 7300 13300 5 10 0 1 0 0 1
footprint=RES1016
T 7300 13300 5 10 0 1 0 0 1
device=RESISTOR
}
C 8600 13300 1 0 0 resistor-2.sym
{
T 8800 13600 5 10 1 1 0 0 1
refdes=R252
T 8800 13100 5 10 1 1 0 0 1
value=3k9
T 8600 13300 5 10 0 1 0 0 1
device=RESISTOR
T 8600 13300 5 10 0 1 0 0 1
footprint=RES1016
}
N 8200 13400 8600 13400 4
C 10000 14000 1 90 0 capacitor-1.sym
{
T 9500 14200 5 10 1 1 90 0 1
refdes=C251
T 9100 14200 5 10 0 1 90 0 1
symversion=0.1
T 10200 14200 5 10 1 1 90 0 1
value=100n
T 10000 14000 5 10 0 1 0 0 1
device=CAPACITOR
T 10000 14000 5 10 0 1 0 0 1
footprint=CAPA750-490X750X900
T 10000 14000 5 10 0 1 0 0 1
Vendor=Conrad
T 10000 14000 5 10 0 1 0 0 1
Vendor_PN=501071
T 10000 14000 5 10 0 1 0 0 1
Mfg=Epcos
}
C 10200 13400 1 0 0 capacitor-1.sym
{
T 10400 13900 5 10 1 1 0 0 1
refdes=C252
T 10400 14300 5 10 0 1 0 0 1
symversion=0.1
T 10300 13200 5 10 1 1 0 0 1
value=220n
T 10200 13400 5 10 0 1 0 0 1
device=CAPACITOR
T 10200 13400 5 10 0 1 0 0 1
footprint=CAPA750-490X750X900
T 10200 13400 5 10 0 1 0 0 1
Vendor=Conrad
T 10200 13400 5 10 0 1 0 0 1
Vendor_PN=501071
T 10200 13400 5 10 0 1 0 0 1
Mfg=Epcos
}
C 11600 14000 1 90 0 resistor-2.sym
{
T 11300 14200 5 10 1 1 90 0 1
refdes=R256
T 11800 14200 5 10 1 1 90 0 1
value=39k
T 11600 14000 5 10 0 1 0 0 1
device=RESISTOR
T 11600 14000 5 10 0 1 0 0 1
footprint=RES1016-635X229
}
C 11600 15300 1 90 0 resistor-2.sym
{
T 11300 15500 5 10 1 1 90 0 1
refdes=R255
T 11800 15500 5 10 1 1 90 0 1
value=120k
T 11600 15300 5 10 0 1 0 0 1
device=RESISTOR
T 11600 15300 5 10 0 1 0 0 1
footprint=RES1016
}
N 11500 14900 11500 15300 4
N 9800 13600 10200 13600 4
N 9800 13200 9800 14000 4
N 11500 13600 11500 14000 4
N 9800 14900 9800 16600 4
N 11500 16200 11500 16600 4
N 9800 16600 13400 16600 4
{
T 13700 14200 5 10 1 1 0 0 1
netname=V251
}
N 13400 16600 13400 13400 4
N 11100 13600 12200 13600 4
N 12200 13200 11500 13200 4
N 11500 13200 11500 10500 4
C 9900 12300 1 90 0 resistor-2.sym
{
T 9600 12500 5 10 1 1 90 0 1
refdes=R253
T 10100 12500 5 10 1 1 90 0 1
value=2200
T 9900 12300 5 10 0 1 0 0 1
device=RESISTOR
T 9900 12300 5 10 0 1 0 0 1
footprint=RES1016
}
N 9800 12300 9800 11900 4
N 9800 11000 9800 10500 4
N 13200 13400 13700 13400 4
C 13700 13300 1 0 0 resistor-2.sym
{
T 13900 13600 5 10 1 1 0 0 1
refdes=R257
T 13900 13100 5 10 1 1 0 0 1
value=10k
T 13700 13300 5 10 0 1 0 0 1
device=RESISTOR
T 13700 13300 5 10 0 1 0 0 1
footprint=RES1016
}
N 14600 13400 15300 13400 4
N 15300 13000 14600 13000 4
N 16300 13200 16800 13200 4
{
T 17100 12300 5 10 1 1 0 0 1
netname=V252
}
N 14600 13000 14600 10500 4
N 14800 13400 14800 14500 4
C 16800 13400 1 90 0 diode-3.sym
{
T 16300 13700 5 10 1 1 90 0 1
refdes=D251
T 17000 13700 5 10 1 1 90 0 1
value=1N4148
T 16800 13400 5 10 0 1 0 0 1
footprint=DO-35
T 16800 13400 5 10 0 1 0 0 1
device=DIODE
}
N 16600 14500 16600 14300 4
N 16600 13400 16600 13200 4
C 17700 13400 1 180 0 diode-3.sym
{
T 17100 13500 5 10 1 1 0 0 1
refdes=D252
T 17100 12800 5 10 1 1 0 0 1
value=1N4148
T 17700 13400 5 10 0 1 0 0 1
footprint=DO-35
T 17700 13400 5 10 0 1 0 0 1
device=DIODE
}
N 17700 13200 18100 13200 4
C 18100 13100 1 0 0 resistor-2.sym
{
T 18300 13400 5 10 1 1 0 0 1
refdes=R259
T 18300 12900 5 10 1 1 0 0 1
value=1k
T 18100 13100 5 10 0 1 0 0 1
device=RESISTOR
T 18100 13100 5 10 0 1 0 0 1
footprint=RES1016
}
C 18100 14400 1 0 0 resistor-2.sym
{
T 18300 14700 5 10 1 1 0 0 1
refdes=R258
T 18300 14200 5 10 1 1 0 0 1
value=15k
T 18100 14400 5 10 0 1 0 0 1
device=RESISTOR
T 18100 14400 5 10 0 1 0 0 1
footprint=RES1016
}
N 14800 14500 18100 14500 4
N 21700 14500 21700 13600 4
N 19000 13200 22200 13200 4
N 22200 13600 21700 13600 4
C 20000 16700 1 270 0 diode-3.sym
{
T 19900 16000 5 10 1 1 90 0 1
refdes=D254
T 20600 15900 5 10 1 1 90 0 1
value=1N4148
T 20000 16700 5 10 0 1 180 0 1
footprint=DO-35
T 20000 16700 5 10 0 1 180 0 1
device=DIODE
}
C 21000 18400 1 270 0 diode-3.sym
{
T 20900 17700 5 10 1 1 90 0 1
refdes=D253
T 21600 17600 5 10 1 1 90 0 1
value=1N4148
T 21000 18400 5 10 0 1 180 0 1
footprint=DO-35
T 21000 18400 5 10 0 1 180 0 1
device=DIODE
}
N 5000 17000 20200 17000 4
{
T 5700 17200 5 10 1 1 0 7 1
netname=RESET
}
N 4000 18700 21200 18700 4
{
T 4900 18900 5 10 1 1 0 7 1
netname=FOLLOW
}
N 20200 16700 20200 17000 4
N 21200 18400 21200 18700 4
N 20200 15800 20200 13200 4
C 21100 17300 1 270 0 resistor-2.sym
{
T 21000 16600 5 10 1 1 90 0 1
refdes=R260
T 21500 16600 5 10 1 1 90 0 1
value=1M
T 21100 17300 5 10 0 1 180 0 1
device=RESISTOR
T 21100 17300 5 10 0 1 180 0 1
footprint=RES1016
}
N 21200 17500 21200 17300 4
N 21200 13200 21200 16400 4
N 19000 14500 24600 14500 4
N 24600 14500 24600 13200 4
N 24600 13400 23200 13400 4
{
T 23600 13900 5 10 1 1 0 0 1
netname=V253
}
N 24600 10700 24600 10500 4
N 24600 11900 25500 11900 4
{
T 26400 11900 5 10 1 1 0 1 1
netname=OUTPUT
}
C 19000 11900 1 270 0 capacitor-2.sym
{
T 18900 11300 5 10 1 1 90 0 1
refdes=C253
T 19900 11700 5 10 0 1 270 0 1
symversion=0.1
T 19600 11300 5 10 1 1 90 0 1
value=1u
T 19000 11900 5 10 0 1 0 0 1
device=POLARIZED_CAPACITOR
T 19000 11900 5 10 0 1 0 0 1
footprint=CAPPR200-500X1100
T 19000 11900 5 10 0 1 0 0 1
Vendor=Conrad
}
N 19200 11900 19200 13200 4
N 19200 11000 19200 10500 4
C 100 100 0 0 0 A1-sheet.sym
{
T 30200 500 5 10 1 1 0 0 1
revision=20130310
T 30200 200 5 10 1 1 0 0 1
author=Bert Timmerman
T 26300 200 5 10 1 1 0 0 1
page=01
T 26300 500 5 10 1 1 0 0 1
file=26.006.00.01.52.sch
T 27800 200 5 10 1 1 0 0 1
pages=01
T 26300 800 5 10 1 1 0 0 1
device=OCTAVE_FILTER
T 26300 1000 5 10 1 1 0 0 1
comment=schematic
T 26300 1200 5 10 1 1 0 0 1
description=Octave Filter 63 Hz module (for simulation)
}
C 25500 11800 1 0 0 output.sym
{
T 25600 12100 5 10 0 0 0 0 1
symversion=20090227
}
C 5700 11500 1 0 0 vac-1.sym
{
T 6400 12150 5 10 1 1 0 0 1
refdes=V5
T 6400 12350 5 10 0 0 0 0 1
device=vac
T 6400 12550 5 10 0 0 0 0 1
footprint=none
T 6400 11950 5 10 1 1 0 0 1
value=dc 0 ac 1
}
N 6000 12700 6000 13400 4
N 6000 11500 6000 10500 4
C 1700 10800 1 0 0 vdc-1.sym
{
T 2400 11450 5 10 1 1 0 0 1
refdes=V1
T 2400 11650 5 10 0 0 0 0 1
device=VOLTAGE_SOURCE
T 2400 11850 5 10 0 0 0 0 1
footprint=none
T 2400 11250 5 10 1 1 0 0 1
value=DC 15V
}
C 4700 15400 1 0 0 vpulse-1.sym
{
T 5400 16050 5 10 1 1 0 0 1
refdes=V4
T 5400 16250 5 10 0 0 0 0 1
device=vpulse
T 5400 16450 5 10 0 0 0 0 1
footprint=none
T 5400 15850 5 10 1 1 0 0 1
value=pulse 0 1 10n 10n 100n 1u 2u
}
C 1700 9000 1 0 0 vdc-1.sym
{
T 2400 9650 5 10 1 1 0 0 1
refdes=V2
T 2400 9850 5 10 0 0 0 0 1
device=VOLTAGE_SOURCE
T 2400 10050 5 10 0 0 0 0 1
footprint=none
T 2400 9450 5 10 1 1 0 0 1
value=DC 15V
}
C 3700 17200 1 0 0 vpulse-1.sym
{
T 4400 17850 5 10 1 1 0 0 1
refdes=V3
T 4400 18050 5 10 0 0 0 0 1
device=vpulse
T 4400 18250 5 10 0 0 0 0 1
footprint=none
T 4400 17650 5 10 1 1 0 0 1
value=pulse 0 1 10n 10n 100n 1u 2u
}
N 2000 10800 2000 10200 4
N 2000 9000 2000 8700 4
N 4000 18400 4000 18700 4
N 5000 16600 5000 17000 4
N 5000 15400 5000 10500 4
N 4000 17200 4000 10500 4
N 2000 8700 22700 8700 4
N 12700 13000 12700 8700 4
N 15800 12800 15800 8700 4
N 22700 13000 22700 8700 4
C 2400 10200 1 0 0 gnd-1.sym
N 2000 12000 2000 19400 4
N 12700 19400 12700 13800 4
N 15800 19400 15800 13600 4
N 2000 19400 22700 19400 4
N 22700 19400 22700 13800 4
C 9900 11000 1 90 0 resistor-2.sym
{
T 9600 11200 5 10 1 1 90 0 1
refdes=R254
T 10100 11200 5 10 1 1 90 0 1
value=5k
T 9900 11000 5 10 0 1 0 0 1
device=RESISTOR
T 9900 11000 5 10 0 1 0 0 1
footprint=RES1016
}
C 24500 13200 1 270 0 resistor-2.sym
{
T 24400 12500 5 10 1 1 90 0 1
refdes=R261
T 24900 12500 5 10 1 1 90 0 1
value=5k
T 24500 13200 5 10 0 1 180 0 1
device=RESISTOR
T 24500 13200 5 10 0 1 180 0 1
footprint=RES1016
}
C 24500 11600 1 270 0 resistor-2.sym
{
T 24400 10900 5 10 1 1 90 0 1
refdes=R262
T 24900 10900 5 10 1 1 90 0 1
value=5k
T 24500 11600 5 10 0 1 180 0 1
device=RESISTOR
T 24500 11600 5 10 0 1 180 0 1
footprint=RES1016
}
N 24600 12300 24600 11600 4
N 9500 13400 9800 13400 4
L 16600 13200 17000 12200 3 0 0 0 -1 -1
L 13600 14100 13400 13400 3 0 0 0 -1 -1
L 23500 13800 23400 13400 3 0 0 0 -1 -1
B 17000 12200 600 300 3 0 0 0 -1 -1 0 -1 -1 -1 -1 -1
B 13600 14100 600 300 3 0 0 0 -1 -1 0 -1 -1 -1 -1 -1
B 23500 13800 600 300 3 0 0 0 -1 -1 0 -1 -1 -1 -1 -1
C 12200 13000 1 0 0 CA3140_pp.sym
{
T 13400 13200 5 10 0 0 0 0 1
device=OPAMP
T 12900 13100 5 10 1 1 0 0 1
refdes=X251
T 13400 13800 5 10 0 0 0 0 1
symversion=20110522
T 12900 12900 5 10 1 1 0 0 1
value=CA3140
}
C 15300 12800 1 0 0 CA3140_pp.sym
{
T 16500 13000 5 10 0 0 0 0 1
device=OPAMP
T 16000 12900 5 10 1 1 0 0 1
refdes=X252
T 16500 13600 5 10 0 0 0 0 1
symversion=20110522
T 16000 12700 5 10 1 1 0 0 1
value=CA3140
}
C 22200 13000 1 0 0 CA3140_pp.sym
{
T 23400 13200 5 10 0 0 0 0 1
device=OPAMP
T 22900 13100 5 10 1 1 0 0 1
refdes=X253
T 23400 13800 5 10 0 0 0 0 1
symversion=20110522
T 22900 12900 5 10 1 1 0 0 1
value=CA3140
}
