v 20110115 2
N 2800 15600 21800 15600 4
{
T 1900 15600 5 10 1 1 0 7 1
netname=GND
}
N 2800 18700 5300 18700 4
{
T 1900 18700 5 10 1 1 0 7 1
netname=PREAMP
}
C 5300 18600 1 0 0 resistor-2.sym
{
T 5500 18900 5 10 1 1 0 0 1
refdes=R201
T 5500 18400 5 10 1 1 0 0 1
value=12k
T 5300 18600 5 10 0 1 0 0 1
footprint=RES1016
T 5300 18600 5 10 0 1 0 0 1
device=RESISTOR
}
C 6600 18600 1 0 0 resistor-2.sym
{
T 6800 18900 5 10 1 1 0 0 1
refdes=R202
T 6800 18400 5 10 1 1 0 0 1
value=2k2
T 6600 18600 5 10 0 1 0 0 1
device=RESISTOR
T 6600 18600 5 10 0 1 0 0 1
footprint=RES1016
}
N 6200 18700 6600 18700 4
C 8100 19100 1 90 0 capacitor-1.sym
{
T 7600 19300 5 10 1 1 90 0 1
refdes=C201
T 7200 19300 5 10 0 1 90 0 1
symversion=0.1
T 8300 19300 5 10 1 1 90 0 1
value=220nF MKT
T 8100 19100 5 10 0 1 0 0 1
device=CAPACITOR
T 8100 19100 5 10 0 1 0 0 1
footprint=CAPA750-490X750X900
T 8100 19100 5 10 0 1 0 0 1
vendor=Conrad
T 8100 19100 5 10 0 1 0 0 1
vendor_PN=501071
T 8100 19100 5 10 0 1 0 0 1
mfg=Epcos
}
C 8300 18100 1 0 0 capacitor-1.sym
{
T 8500 18600 5 10 1 1 0 0 1
refdes=C202
T 8500 19000 5 10 0 1 0 0 1
symversion=0.1
T 8400 17900 5 10 1 1 0 0 1
value=220nF MKT
T 8300 18100 5 10 0 1 0 0 1
device=CAPACITOR
T 8300 18100 5 10 0 1 0 0 1
footprint=CAPA750-490X750X900
T 8300 18100 5 10 0 1 0 0 1
vendor=Conrad
T 8300 18100 5 10 0 1 0 0 1
vendor_PN=501071
T 8300 18100 5 10 0 1 0 0 1
mfg=Epcos
}
C 9700 19100 1 90 0 resistor-2.sym
{
T 9400 19300 5 10 1 1 90 0 1
refdes=R206
T 9900 19300 5 10 1 1 90 0 1
value=22k
T 9700 19100 5 10 0 1 0 0 1
device=RESISTOR
T 9700 19100 5 10 0 1 0 0 1
footprint=RES1016-635X229
}
C 9700 20400 1 90 0 resistor-2.sym
{
T 9400 20600 5 10 1 1 90 0 1
refdes=R205
T 9900 20600 5 10 1 1 90 0 1
value=120k
T 9700 20400 5 10 0 1 0 0 1
device=RESISTOR
T 9700 20400 5 10 0 1 0 0 1
footprint=RES1016
}
N 9600 20000 9600 20400 4
N 7500 18700 7900 18700 4
N 7900 18000 7900 19100 4
N 9600 18300 9600 19100 4
N 7900 20000 7900 21700 4
N 9600 21300 9600 21700 4
N 7900 21700 11600 21700 4
N 11600 21700 11600 18500 4
N 10000 18700 10000 15600 4
C 8000 17100 1 90 0 resistor-2.sym
{
T 7700 17300 5 10 1 1 90 0 1
refdes=R203
T 8200 17300 5 10 1 1 90 0 1
value=2k2
T 8000 17100 5 10 0 1 0 0 1
device=RESISTOR
T 8000 17100 5 10 0 1 0 0 1
footprint=RES1016
}
C 7800 15900 1 270 1 resistor-variable-2.sym
{
T 7700 16150 5 10 1 1 90 0 1
refdes=R204
T 8200 16100 5 10 1 1 90 0 1
value=5k
T 7800 15900 5 10 0 1 0 0 1
device=RESISTOR
T 7800 15900 5 10 0 1 0 0 1
footprint=TRIM_Piher_PT-10LH
T 7800 15900 5 10 0 1 0 0 1
vendor=Conrad
T 7800 15900 5 10 0 1 0 0 1
mfg=Piher
}
N 7900 17100 7900 16800 4
N 8400 16400 8600 16400 4
N 8600 16400 8600 15600 4
N 7900 15900 7900 15600 4
N 11300 18500 11800 18500 4
C 11800 18400 1 0 0 resistor-2.sym
{
T 12000 18700 5 10 1 1 0 0 1
refdes=R207
T 12000 18200 5 10 1 1 0 0 1
value=10k
T 11800 18400 5 10 0 1 0 0 1
device=RESISTOR
T 11800 18400 5 10 0 1 0 0 1
footprint=RES1016
}
N 12700 18500 13400 18500 4
N 14400 18700 14900 18700 4
N 13200 18900 13200 15600 4
N 12900 18500 12900 20000 4
C 14900 18900 1 90 0 diode-3.sym
{
T 14400 19200 5 10 1 1 90 0 1
refdes=D201
T 15100 19200 5 10 1 1 90 0 1
value=1N4148
T 14900 18900 5 10 0 1 0 0 1
device=DIODE
T 14900 18900 5 10 0 1 0 0 1
vendor=Conrad
T 14900 18900 5 10 0 1 0 0 1
vendor_PN=162280
T 14900 18900 5 10 0 1 0 0 1
mfg=Philips
T 14900 18900 5 10 0 1 0 0 1
price=0.05
}
N 14700 20000 14700 19800 4
N 14700 18900 14700 18700 4
C 15800 18900 1 180 0 diode-3.sym
{
T 15200 19000 5 10 1 1 0 0 1
refdes=D202
T 15200 18300 5 10 1 1 0 0 1
value=1N4148
T 15800 18900 5 10 0 1 0 0 1
device=DIODE
T 15800 18900 5 10 0 1 0 0 1
vendor=Conrad
T 15800 18900 5 10 0 1 0 0 1
vendor_PN=162280
T 15800 18900 5 10 0 1 0 0 1
mfg=Philips
T 15800 18900 5 10 0 1 0 0 1
price=0.05
}
N 15800 18700 16200 18700 4
C 16200 18600 1 0 0 resistor-2.sym
{
T 16400 18900 5 10 1 1 0 0 1
refdes=R209
T 16400 18400 5 10 1 1 0 0 1
value=1k
T 16200 18600 5 10 0 1 0 0 1
device=RESISTOR
T 16200 18600 5 10 0 1 0 0 1
footprint=RES1016
}
C 16200 19900 1 0 0 resistor-2.sym
{
T 16400 20200 5 10 1 1 0 0 1
refdes=R208
T 16400 19700 5 10 1 1 0 0 1
value=15k
T 16200 19900 5 10 0 1 0 0 1
device=RESISTOR
T 16200 19900 5 10 0 1 0 0 1
footprint=RES1016
}
N 12900 20000 16200 20000 4
N 20000 18300 20000 17800 4
N 17100 18700 20300 18700 4
C 18500 16100 1 90 0 diode-3.sym
{
T 18000 16400 5 10 1 1 90 0 1
refdes=D204
T 18700 16400 5 10 1 1 90 0 1
value=1N4148
T 18500 16100 5 10 0 1 0 0 1
device=DIODE
T 18500 16100 5 10 0 1 0 0 1
vendor=Conrad
T 18500 16100 5 10 0 1 0 0 1
vendor_PN=162280
T 18500 16100 5 10 0 1 0 0 1
mfg=Philips
T 18500 16100 5 10 0 1 0 0 1
price=0.05
}
C 19500 16100 1 90 0 diode-3.sym
{
T 19000 16400 5 10 1 1 90 0 1
refdes=D203
T 19700 16400 5 10 1 1 90 0 1
value=1N4148
T 19500 16100 5 10 0 1 0 0 1
device=DIODE
T 19500 16100 5 10 0 1 0 0 1
vendor=Conrad
T 19500 16100 5 10 0 1 0 0 1
vendor_PN=162280
T 19500 16100 5 10 0 1 0 0 1
mfg=Philips
T 19500 16100 5 10 0 1 0 0 1
price=0.05
}
N 2800 14200 18300 14200 4
{
T 1900 14200 5 10 1 1 0 7 1
netname=RESET
}
N 2800 13700 19300 13700 4
{
T 1900 13700 5 10 1 1 0 7 1
netname=FOLLOW
}
N 18300 16100 18300 14200 4
N 19300 16100 19300 13700 4
N 18300 17000 18300 18700 4
C 19400 17500 1 90 0 resistor-2.sym
{
T 19100 17700 5 10 1 1 90 0 1
refdes=R210
T 19600 17700 5 10 1 1 90 0 1
value=1M
T 19400 17500 5 10 0 1 0 0 1
device=RESISTOR
T 19400 17500 5 10 0 1 0 0 1
footprint=RES1016
}
N 19300 17000 19300 17500 4
N 19300 18700 19300 18400 4
N 17100 20000 21800 20000 4
N 21800 20000 21800 17200 4
N 21800 18500 21300 18500 4
C 21700 17200 1 270 0 resistor-variable-2.sym
{
T 21600 16550 5 10 1 1 90 0 1
refdes=R211
T 22100 16800 5 10 1 1 90 0 1
value=10k
T 21700 17200 5 10 0 1 0 0 1
device=RESISTOR
T 21700 17200 5 10 0 1 0 0 1
footprint=TRIM_Piher_PT-10LH
T 21700 17200 5 10 0 1 0 0 1
vendor=Conrad
T 21700 17200 5 10 0 1 0 0 1
mfg=Piher
}
N 21800 16300 21800 15600 4
N 22300 16700 23200 16700 4
{
T 24100 16700 5 10 1 1 0 1 1
netname=OUTPUT_31HZ
}
N 4200 5300 21800 5300 4
N 4500 8400 5300 8400 4
N 7900 11400 11600 11400 4
N 11600 11400 11600 8200 4
N 10000 8400 10000 5300 4
N 8600 6100 8600 5300 4
N 7900 5600 7900 5300 4
N 11300 8200 11800 8200 4
C 11800 8100 1 0 0 resistor-2.sym
{
T 12000 8400 5 10 1 1 0 0 1
refdes=R257
T 12000 7900 5 10 1 1 0 0 1
value=10k
T 11800 8100 5 10 0 1 0 0 1
device=RESISTOR
T 11800 8100 5 10 0 1 0 0 1
footprint=RES1016
}
N 13100 8600 13400 8600 4
N 13400 8200 12700 8200 4
N 14400 8400 14900 8400 4
N 13100 8600 13100 5300 4
N 12900 8200 12900 9700 4
C 14900 8600 1 90 0 diode-3.sym
{
T 14400 8900 5 10 1 1 90 0 1
refdes=D251
T 15100 8900 5 10 1 1 90 0 1
value=1N4148
T 14900 8600 5 10 0 1 0 0 1
device=DIODE
T 14900 8600 5 10 0 1 0 0 1
vendor=Conrad
T 14900 8600 5 10 0 1 0 0 1
vendor_PN=162280
T 14900 8600 5 10 0 1 0 0 1
mfg=Philips
T 14900 8600 5 10 0 1 0 0 1
price=0.05
}
N 14700 9700 14700 9500 4
N 14700 8600 14700 8400 4
C 15800 8600 1 180 0 diode-3.sym
{
T 15200 8700 5 10 1 1 0 0 1
refdes=D252
T 15200 8000 5 10 1 1 0 0 1
value=1N4148
T 15800 8600 5 10 0 1 0 0 1
device=DIODE
T 15800 8600 5 10 0 1 0 0 1
vendor=Conrad
T 15800 8600 5 10 0 1 0 0 1
vendor_PN=162280
T 15800 8600 5 10 0 1 0 0 1
mfg=Philips
T 15800 8600 5 10 0 1 0 0 1
price=0.05
}
N 15800 8400 16200 8400 4
C 16200 8300 1 0 0 resistor-2.sym
{
T 16400 8600 5 10 1 1 0 0 1
refdes=R259
T 16400 8100 5 10 1 1 0 0 1
value=1k
T 16200 8300 5 10 0 1 0 0 1
device=RESISTOR
T 16200 8300 5 10 0 1 0 0 1
footprint=RES1016
}
C 16200 9600 1 0 0 resistor-2.sym
{
T 16400 9900 5 10 1 1 0 0 1
refdes=R258
T 16400 9400 5 10 1 1 0 0 1
value=15k
T 16200 9600 5 10 0 1 0 0 1
device=RESISTOR
T 16200 9600 5 10 0 1 0 0 1
footprint=RES1016
}
N 12900 9700 16200 9700 4
N 20000 7500 21800 7500 4
N 17100 8400 20300 8400 4
C 18500 5800 1 90 0 diode-3.sym
{
T 18000 6100 5 10 1 1 90 0 1
refdes=D254
T 18700 6100 5 10 1 1 90 0 1
value=1N4148
T 18500 5800 5 10 0 1 0 0 1
device=DIODE
T 18500 5800 5 10 0 1 0 0 1
vendor=Conrad
T 18500 5800 5 10 0 1 0 0 1
vendor_PN=162280
T 18500 5800 5 10 0 1 0 0 1
mfg=Philips
T 18500 5800 5 10 0 1 0 0 1
price=0.05
}
C 19500 5800 1 90 0 diode-3.sym
{
T 19000 6100 5 10 1 1 90 0 1
refdes=D253
T 19700 6100 5 10 1 1 90 0 1
value=1N4148
T 19500 5800 5 10 0 1 0 0 1
device=DIODE
T 19500 5800 5 10 0 1 0 0 1
vendor=Conrad
T 19500 5800 5 10 0 1 0 0 1
vendor_PN=162280
T 19500 5800 5 10 0 1 0 0 1
mfg=Philips
T 19500 5800 5 10 0 1 0 0 1
price=0.05
}
N 3600 3900 18300 3900 4
N 3300 3400 19300 3400 4
N 18300 5800 18300 3900 4
N 19300 5800 19300 3400 4
N 18300 6700 18300 8400 4
C 19400 6900 1 90 0 resistor-2.sym
{
T 19100 7100 5 10 1 1 90 0 1
refdes=R260
T 19600 7100 5 10 1 1 90 0 1
value=1M
T 19400 6900 5 10 0 1 0 0 1
device=RESISTOR
T 19400 6900 5 10 0 1 0 0 1
footprint=RES1016
}
N 19300 6700 19300 6900 4
N 19300 8400 19300 7800 4
N 17100 9700 21800 9700 4
N 21800 9700 21800 6900 4
N 21800 8200 21300 8200 4
C 21700 6900 1 270 0 resistor-variable-2.sym
{
T 21600 6250 5 10 1 1 90 0 1
refdes=R261
T 22100 6500 5 10 1 1 90 0 1
value=10k
T 21700 6900 5 10 0 1 0 0 1
device=RESISTOR
T 21700 6900 5 10 0 1 0 0 1
footprint=TRIM_Piher_PT-10LH
T 21700 6900 5 10 0 1 0 0 1
vendor=Conrad
T 21700 6900 5 10 0 1 0 0 1
mfg=Piher
}
N 21800 6000 21800 5300 4
N 22300 6400 23200 6400 4
{
T 24100 6400 5 10 1 1 0 1 1
netname=OUTPUT_63HZ
}
C 17100 6700 1 270 0 capacitor-2.sym
{
T 17000 6100 5 10 1 1 90 0 1
refdes=C253
T 18000 6500 5 10 0 1 270 0 1
symversion=0.1
T 17700 6100 5 10 1 1 90 0 1
value=1uF/35V
T 17100 6700 5 10 0 1 0 0 1
device=POLARIZED_CAPACITOR
T 17100 6700 5 10 0 1 0 0 1
footprint=CAPPR200-500X1100
T 17100 6700 5 10 0 1 0 0 1
vendor=Conrad
}
N 17300 6700 17300 8400 4
N 17300 5800 17300 5300 4
C 17100 17000 1 270 0 capacitor-2.sym
{
T 17000 16400 5 10 1 1 90 0 1
refdes=C203
T 18000 16800 5 10 0 1 270 0 1
symversion=0.1
T 17700 16400 5 10 1 1 90 0 1
value=1uF/35V
T 17100 17000 5 10 0 1 0 0 1
device=POLARIZED_CAPACITOR
T 17100 17000 5 10 0 1 0 0 1
footprint=CAPPR200-500X1100
T 17100 17000 5 10 0 1 0 0 1
vendor=Conrad
}
N 17300 17000 17300 18700 4
N 17300 16100 17300 15600 4
N 4500 18700 4500 8400 4
N 3600 14200 3600 3900 4
N 3300 13700 3300 3400 4
N 4200 15600 4200 5300 4
C 5300 8300 1 0 0 resistor-2.sym
{
T 5500 8600 5 10 1 1 0 0 1
refdes=R251
T 5500 8100 5 10 1 1 0 0 1
value=12k
T 5300 8300 5 10 0 1 0 0 1
device=RESISTOR
T 5300 8300 5 10 0 1 0 0 1
footprint=RES1016
}
C 6600 8300 1 0 0 resistor-2.sym
{
T 6800 8600 5 10 1 1 0 0 1
refdes=R252
T 6800 8100 5 10 1 1 0 0 1
value=3k9
T 6600 8300 5 10 0 1 0 0 1
device=RESISTOR
T 6600 8300 5 10 0 1 0 0 1
footprint=RES1016
}
N 6200 8400 6600 8400 4
C 8100 8800 1 90 0 capacitor-1.sym
{
T 7600 9000 5 10 1 1 90 0 1
refdes=C251
T 7200 9000 5 10 0 1 90 0 1
symversion=0.1
T 8300 9000 5 10 1 1 90 0 1
value=100nF MKT
T 8100 8800 5 10 0 1 0 0 1
device=CAPACITOR
T 8100 8800 5 10 0 1 0 0 1
footprint=CAPA750-320X610X900
T 8100 8800 5 10 0 1 0 0 1
vendor=Conrad
T 8100 8800 5 10 0 1 0 0 1
vendor_PN=501047
T 8100 8800 5 10 0 1 0 0 1
mfg=Epcos
}
C 8300 7800 1 0 0 capacitor-1.sym
{
T 8500 8300 5 10 1 1 0 0 1
refdes=C252
T 8500 8700 5 10 0 1 0 0 1
symversion=0.1
T 8400 7600 5 10 1 1 0 0 1
value=100nF MKT
T 8300 7800 5 10 0 1 0 0 1
device=CAPACITOR
T 8300 7800 5 10 0 1 0 0 1
footprint=CAPA750-320X610X900
T 8300 7800 5 10 0 1 0 0 1
vendor=Conrad
T 8300 7800 5 10 0 1 0 0 1
vendor_PN=501047
T 8300 7800 5 10 0 1 0 0 1
mfg=Epcos
}
C 9700 8800 1 90 0 resistor-2.sym
{
T 9400 9000 5 10 1 1 90 0 1
refdes=R256
T 9900 9000 5 10 1 1 90 0 1
value=39k
T 9700 8800 5 10 0 1 0 0 1
device=RESISTOR
T 9700 8800 5 10 0 1 0 0 1
footprint=RES1016
}
C 9700 10100 1 90 0 resistor-2.sym
{
T 9400 10300 5 10 1 1 90 0 1
refdes=R255
T 9900 10300 5 10 1 1 90 0 1
value=120k
T 9700 10100 5 10 0 1 0 0 1
device=RESISTOR
T 9700 10100 5 10 0 1 0 0 1
footprint=RES1016
}
N 9600 9700 9600 10100 4
N 7500 8400 7900 8400 4
N 7900 7700 7900 8800 4
N 9600 8000 9600 8800 4
C 8000 6800 1 90 0 resistor-2.sym
{
T 7700 7000 5 10 1 1 90 0 1
refdes=R253
T 8200 7000 5 10 1 1 90 0 1
value=2k2
T 8000 6800 5 10 0 1 0 0 1
device=RESISTOR
T 8000 6800 5 10 0 1 0 0 1
footprint=RES1016
}
C 7800 5600 1 270 1 resistor-variable-2.sym
{
T 7700 5850 5 10 1 1 90 0 1
refdes=R254
T 8200 5800 5 10 1 1 90 0 1
value=5k
T 7800 5600 5 10 0 1 0 0 1
device=RESISTOR
T 7800 5600 5 10 0 1 0 0 1
footprint=TRIM_Piher_PT-10LH
T 7800 5600 5 10 0 1 0 0 1
vendor=Conrad
T 7800 5600 5 10 0 1 0 0 1
mfg=Piher
}
N 7900 6800 7900 6500 4
N 8400 6100 8600 6100 4
N 9600 11000 9600 11400 4
N 7900 9700 7900 11400 4
C 100 100 0 0 0 A1-sheet.sym
{
T 30200 500 5 10 1 1 0 0 1
revision=20130310
T 30200 200 5 10 1 1 0 0 1
author=Bert Timmerman
T 26300 200 5 10 1 1 0 0 1
page=03
T 26300 500 5 10 1 1 0 0 1
file=26.000.00.01.03.sch
T 27800 200 5 10 1 1 0 0 1
pages=07
T 26300 800 5 10 1 1 0 0 1
device=OCTAVE_FILTER
T 26300 1000 5 10 1 1 0 0 1
comment=schematic
T 26300 1200 5 10 1 1 0 0 1
description=Octave Filter 31.5 Hz and 63 Hz module
}
C 10300 18100 1 0 0 CA3140.sym
{
T 11100 18300 5 8 0 1 0 0 1
device=OPAMP
T 10500 19000 5 10 1 1 0 0 1
refdes=U201
T 10300 18100 5 10 0 1 0 0 1
footprint=DIP08300
T 10300 18100 5 10 0 1 0 0 1
vendor=Conrad
T 11100 18300 5 8 1 1 0 0 1
value=CA3140E
T 10300 18100 5 10 0 1 0 0 1
vendor_PN==174785
T 12000 19600 5 10 0 0 0 0 1
symversion=20110522
}
C 13400 18300 1 0 0 CA3140.sym
{
T 14200 18500 5 8 0 1 0 0 1
device=OPAMP
T 13600 19200 5 10 1 1 0 0 1
refdes=U202
T 13400 18300 5 10 0 1 0 0 1
footprint=DIP08300
T 13400 18300 5 10 0 1 0 0 1
vendor=Conrad
T 14200 18500 5 8 1 1 0 0 1
value=CA3140E
T 13400 18300 5 10 0 1 0 0 1
vendor_PN==174785
T 15100 19800 5 10 0 0 0 0 1
symversion=20110522
}
C 10300 7800 1 0 0 CA3140.sym
{
T 11100 8000 5 8 0 1 0 0 1
device=OPAMP
T 10500 8700 5 10 1 1 0 0 1
refdes=U251
T 10300 7800 5 10 0 1 0 0 1
footprint=DIP08300
T 10300 7800 5 10 0 1 0 0 1
vendor=Conrad
T 11100 8000 5 8 1 1 0 0 1
value=CA3140E
T 10300 7800 5 10 0 1 0 0 1
vendor_PN==174785
T 12000 9300 5 10 0 0 0 0 1
symversion=20110522
}
C 13400 8000 1 0 0 CA3140.sym
{
T 14200 8200 5 8 0 1 0 0 1
device=OPAMP
T 13600 8900 5 10 1 1 0 0 1
refdes=U252
T 13400 8000 5 10 0 1 0 0 1
footprint=DIP08300
T 13400 8000 5 10 0 1 0 0 1
vendor=Conrad
T 14200 8200 5 8 1 1 0 0 1
value=CA3140E
T 13400 8000 5 10 0 1 0 0 1
vendor_PN==174785
T 15100 9500 5 10 0 0 0 0 1
symversion=20110522
}
C 2000 18600 1 0 0 input.sym
{
T 2100 18900 5 10 0 0 0 0 1
symversion=20090227
}
C 2000 15500 1 0 0 input.sym
{
T 2100 15800 5 10 0 0 0 0 1
symversion=20090227
}
C 2000 14100 1 0 0 input.sym
{
T 2100 14400 5 10 0 0 0 0 1
symversion=20090227
}
C 2000 13600 1 0 0 input.sym
{
T 2100 13900 5 10 0 0 0 0 1
symversion=20090227
}
C 23200 16600 1 0 0 output.sym
{
T 23300 16900 5 10 0 0 0 0 1
symversion=20090227
}
C 23200 6300 1 0 0 output.sym
{
T 23300 6600 5 10 0 0 0 0 1
symversion=20090227
}
N 10000 18700 10300 18700 4
N 9200 18300 10300 18300 4
N 8300 18300 7900 18300 4
N 13200 18900 13400 18900 4
N 20000 18300 20300 18300 4
N 20000 17800 21800 17800 4
N 8300 8000 7900 8000 4
N 10000 8400 10300 8400 4
N 10300 8000 9200 8000 4
N 20300 8000 20000 8000 4
N 20000 8000 20000 7500 4
C 20300 18100 1 0 0 LM741.sym
{
T 21100 18700 5 10 1 1 0 0 1
value=LM741
T 20500 19000 5 10 1 1 0 0 1
refdes=U203
T 20400 19400 5 10 0 0 0 0 1
device=OPAMP
}
C 20300 7800 1 0 0 LM741.sym
{
T 21100 8400 5 10 1 1 0 0 1
value=LM741
T 20500 8700 5 10 1 1 0 0 1
refdes=U253
T 20400 9100 5 10 0 0 0 0 1
device=OPAMP
}
