v 20110115 2
N 1800 16100 3900 16100 4
{
T 2000 16200 5 10 1 1 0 0 1
netname=IN
}
C 5300 18600 1 0 0 resistor-2.sym
{
T 5500 18900 5 10 1 1 0 0 1
refdes=R201
T 5500 18400 5 10 1 1 0 0 1
value=12k
T 5300 18600 5 10 0 1 0 0 1
footprint=RESC3216N____.fp
T 5300 18600 5 10 0 1 0 0 1
device=RESISTOR
T 5300 18600 5 10 0 1 0 0 1
vendor=Conrad
T 5300 18600 5 10 0 1 0 0 1
price=0.10
T 5300 18600 5 10 0 1 0 0 1
vendor_PN=402672
T 5300 18600 5 10 0 1 0 0 1
mfg=Yageo
T 5300 18600 5 10 0 1 0 0 1
mfg_PN=RC1206JR-0712kL
}
C 6600 18600 1 0 0 resistor-2.sym
{
T 6800 18900 5 10 1 1 0 0 1
refdes=R202
T 6800 18400 5 10 1 1 0 0 1
value=2k2
T 6600 18600 5 10 0 1 0 0 1
device=RESISTOR
T 6600 18600 5 10 0 1 0 0 1
vendor=Conrad
T 6600 18600 5 10 0 1 0 0 1
price=0.10
T 6600 18600 5 10 0 1 0 0 1
vendor_PN=402583
T 6600 18600 5 10 0 1 0 0 1
mfg=Yageo
T 6600 18600 5 10 0 1 0 0 1
mfg_PN=RC1206JR-072k2L
T 6600 18600 5 10 0 1 0 0 1
footprint=RESC3216N____.fp
}
N 6200 18700 6600 18700 4
C 8100 19100 1 90 0 capacitor-1.sym
{
T 7600 19300 5 10 1 1 90 0 1
refdes=C201
T 7200 19300 5 10 0 1 90 0 1
symversion=0.1
T 8300 19300 5 10 1 1 90 0 1
value=220nF
T 8100 19100 5 10 0 1 0 0 1
device=CAPACITOR
T 8100 19100 5 10 0 1 0 0 1
footprint=CAPC3216N____.fp
T 8100 19100 5 10 0 1 0 0 1
vendor=Conrad
T 8100 19100 5 10 0 1 0 0 1
mfg=Yageo
T 8100 19100 5 10 0 1 0 0 1
mfg_PN=CC1206JRX7R8BB224 
T 8100 19100 5 10 0 1 0 0 1
price=0.19
T 8100 19100 5 10 0 1 0 0 1
vendor_PN=445297
}
C 8300 18500 1 0 0 capacitor-1.sym
{
T 8500 19000 5 10 1 1 0 0 1
refdes=C202
T 8500 19400 5 10 0 1 0 0 1
symversion=0.1
T 8400 18300 5 10 1 1 0 0 1
value=220nF
T 8300 18500 5 10 0 1 0 0 1
device=CAPACITOR
T 8300 18500 5 10 0 1 0 0 1
footprint=CAPC3216N____.fp
T 8300 18500 5 10 0 1 0 0 1
vendor=Conrad
T 8300 18500 5 10 0 1 0 0 1
mfg=Yageo
T 8300 18500 5 10 0 1 0 0 1
mfg_PN=CC1206JRX7R8BB224 
T 8300 18500 5 10 0 1 0 0 1
price=0.19
T 8300 18500 5 10 0 1 0 0 1
vendor_PN=445297
}
C 9700 19100 1 90 0 resistor-2.sym
{
T 9400 19300 5 10 1 1 90 0 1
refdes=R206
T 9900 19300 5 10 1 1 90 0 1
value=22k
T 9700 19100 5 10 0 1 0 0 1
device=RESISTOR
T 9700 19100 5 10 0 1 0 0 1
vendor=Conrad
T 9700 19100 5 10 0 1 0 0 1
price=0.10
T 9700 19100 5 10 0 1 0 0 1
vendor_PN=402702
T 9700 19100 5 10 0 1 0 0 1
mfg=Yageo
T 9700 19100 5 10 0 1 0 0 1
mfg_PN=RC1206JR-0722kL
T 9700 19100 5 10 0 1 0 0 1
footprint=RESC3216N____.fp
}
C 9700 20400 1 90 0 resistor-2.sym
{
T 9400 20600 5 10 1 1 90 0 1
refdes=R205
T 9900 20600 5 10 1 1 90 0 1
value=120k
T 9700 20400 5 10 0 1 0 0 1
device=RESISTOR
T 9700 20400 5 10 0 1 0 0 1
vendor=Conrad
T 9700 20400 5 10 0 1 0 0 1
price=0.10
T 9700 20400 5 10 0 1 0 0 1
vendor_PN=402796
T 9700 20400 5 10 0 1 0 0 1
mfg=Yageo
T 9700 20400 5 10 0 1 0 0 1
mfg_PN=RC1206JR-07120kL
T 9700 20400 5 10 0 1 0 0 1
footprint=RESC3216N____.fp
}
N 9600 20000 9600 20400 4
N 7500 18700 8300 18700 4
N 7900 18700 7900 19100 4
N 9600 18700 9600 19100 4
N 7900 20000 7900 21700 4
N 9600 21300 9600 21700 4
N 7900 21700 11600 21700 4
N 11600 21700 11600 18500 4
N 9200 18700 10300 18700 4
N 10300 18300 10100 18300 4
C 8000 17400 1 90 0 resistor-2.sym
{
T 7700 17600 5 10 1 1 90 0 1
refdes=R203
T 8200 17600 5 10 1 1 90 0 1
value=2k2
T 8000 17400 5 10 0 1 0 0 1
device=RESISTOR
T 8000 17400 5 10 0 1 0 0 1
vendor=Conrad
T 8000 17400 5 10 0 1 0 0 1
price=0.10
T 8000 17400 5 10 0 1 0 0 1
vendor_PN=402583
T 8000 17400 5 10 0 1 0 0 1
mfg=Yageo
T 8000 17400 5 10 0 1 0 0 1
mfg_PN=RC1206JR-072k2L
T 8000 17400 5 10 0 1 0 0 1
footprint=RESC3216N____.fp
}
N 7900 18700 7900 18300 4
C 7800 16100 1 270 1 resistor-variable-2.sym
{
T 7700 16350 5 10 1 1 90 0 1
refdes=R204
T 8200 16300 5 10 1 1 90 0 1
value=5k
T 7800 16100 5 10 0 1 0 0 1
device=ADJUSTABLE_RESISTOR
T 7800 16100 5 10 0 1 0 0 1
vendor=Conrad
T 7800 16100 5 10 0 1 0 0 1
price=0.63
T 7800 16100 5 10 0 1 0 0 1
vendor_PN=421028
T 7800 16100 5 10 0 1 0 0 1
mfg=Panasonic
T 7800 16100 5 10 0 1 0 0 1
mfg_PN=EVM1D
T 7800 16100 5 10 0 1 0 0 1
footprint=TRIM_Panasonic_EVM1D__.fp
}
N 7900 17400 7900 17000 4
N 8400 16600 8600 16600 4
N 8600 16600 8600 15900 4
N 7900 16100 7900 15600 4
N 11300 18500 11800 18500 4
C 11800 18400 1 0 0 resistor-2.sym
{
T 12000 18700 5 10 1 1 0 0 1
refdes=R207
T 12000 18200 5 10 1 1 0 0 1
value=10k
T 11800 18400 5 10 0 1 0 0 1
device=RESISTOR
T 11800 18400 5 10 0 1 0 0 1
vendor=Conrad
T 11800 18400 5 10 0 1 0 0 1
price=0.10
T 11800 18400 5 10 0 1 0 0 1
vendor_PN=402664
T 11800 18400 5 10 0 1 0 0 1
mfg=Yageo
T 11800 18400 5 10 0 1 0 0 1
mfg_PN=RC1206JR-0710kL
T 11800 18400 5 10 0 1 0 0 1
footprint=RESC3216N____.fp
}
N 12700 18500 13200 18500 4
N 13200 18100 12900 18100 4
N 14200 18300 14900 18300 4
N 12900 18500 12900 19600 4
C 14900 18500 1 90 0 diode-3.sym
{
T 14400 18800 5 10 1 1 90 0 1
refdes=D201
T 15100 18800 5 10 1 1 90 0 1
value=LL4148
T 14900 18500 5 10 0 1 0 0 1
footprint=DIOMELF3216X16N____.fp
T 14900 18500 5 10 0 1 0 0 1
device=DIODE
T 14900 18500 5 10 0 1 0 0 1
vendor=Conrad
T 14900 18500 5 10 0 1 0 0 1
mfg=Diotec
T 14900 18500 5 10 0 1 0 0 1
price=0.10
T 14900 18500 5 10 0 1 0 0 1
vendor_PN=140902
T 14900 18500 5 10 0 1 0 0 1
mfg_PN=LL4148
}
N 14700 19600 14700 19400 4
N 14700 18500 14700 18300 4
C 15800 18500 1 180 0 diode-3.sym
{
T 15200 18600 5 10 1 1 0 0 1
refdes=D202
T 15200 17900 5 10 1 1 0 0 1
value=LL4148
T 15800 18500 5 10 0 1 0 0 1
footprint=DIOMELF3216X16N____.fp
T 15800 18500 5 10 0 1 0 0 1
device=DIODE
T 15800 18500 5 10 0 1 0 0 1
vendor=Conrad
T 15800 18500 5 10 0 1 0 0 1
mfg=Diotec
T 15800 18500 5 10 0 1 0 0 1
price=0.10
T 15800 18500 5 10 0 1 0 0 1
vendor_PN=140902
T 15800 18500 5 10 0 1 0 0 1
mfg_PN=LL4148
}
N 15800 18300 16200 18300 4
C 16200 18200 1 0 0 resistor-2.sym
{
T 16400 18500 5 10 1 1 0 0 1
refdes=R209
T 16400 18000 5 10 1 1 0 0 1
value=1k
T 16200 18200 5 10 0 1 0 0 1
device=RESISTOR
T 16200 18200 5 10 0 1 0 0 1
vendor=Conrad
T 16200 18200 5 10 0 1 0 0 1
price=0.10
T 16200 18200 5 10 0 1 0 0 1
vendor_PN=402540
T 16200 18200 5 10 0 1 0 0 1
mfg=Yageo
T 16200 18200 5 10 0 1 0 0 1
mfg_PN=RC1206JR-071kL
T 16200 18200 5 10 0 1 0 0 1
footprint=RESC3216N____.fp
}
C 16200 19500 1 0 0 resistor-2.sym
{
T 16400 19800 5 10 1 1 0 0 1
refdes=R208
T 16400 19300 5 10 1 1 0 0 1
value=15k
T 16200 19500 5 10 0 1 0 0 1
device=RESISTOR
T 16200 19500 5 10 0 1 0 0 1
vendor=Conrad
T 16200 19500 5 10 0 1 0 0 1
price=0.10
T 16200 19500 5 10 0 1 0 0 1
vendor_PN=402680
T 16200 19500 5 10 0 1 0 0 1
mfg=Yageo
T 16200 19500 5 10 0 1 0 0 1
mfg_PN=RC1206JR-0715kL
T 16200 19500 5 10 0 1 0 0 1
footprint=RESC3216N____.fp
}
N 12900 19600 16200 19600 4
N 19800 19600 19800 18700 4
N 17100 18300 20700 18300 4
N 20700 18700 19800 18700 4
C 18500 16100 1 90 0 diode-3.sym
{
T 18000 16400 5 10 1 1 90 0 1
refdes=D204
T 18700 16400 5 10 1 1 90 0 1
value=LL4148
T 18500 16100 5 10 0 1 0 0 1
footprint=DIOMELF3216X16N____.fp
T 18500 16100 5 10 0 1 0 0 1
device=DIODE
T 18500 16100 5 10 0 1 0 0 1
vendor=Conrad
T 18500 16100 5 10 0 1 0 0 1
mfg=Diotec
T 18500 16100 5 10 0 1 0 0 1
price=0.10
T 18500 16100 5 10 0 1 0 0 1
vendor_PN=140902
T 18500 16100 5 10 0 1 0 0 1
mfg_PN=LL4148
}
C 19500 16100 1 90 0 diode-3.sym
{
T 19000 16400 5 10 1 1 90 0 1
refdes=D203
T 19700 16400 5 10 1 1 90 0 1
value=LL4148
T 19500 16100 5 10 0 1 0 0 1
footprint=DIOMELF3216X16N____.fp
T 19500 16100 5 10 0 1 0 0 1
device=DIODE
T 19500 16100 5 10 0 1 0 0 1
vendor=Conrad
T 19500 16100 5 10 0 1 0 0 1
mfg=Diotec
T 19500 16100 5 10 0 1 0 0 1
price=0.10
T 19500 16100 5 10 0 1 0 0 1
vendor_PN=140902
T 19500 16100 5 10 0 1 0 0 1
mfg_PN=LL4148
}
N 3600 14200 18300 14200 4
N 3300 13700 19300 13700 4
N 18300 16100 18300 14200 4
N 19300 16100 19300 13700 4
N 18300 17000 18300 18300 4
C 19400 17200 1 90 0 resistor-2.sym
{
T 19100 17400 5 10 1 1 90 0 1
refdes=R210
T 19600 17400 5 10 1 1 90 0 1
value=1M
T 19400 17200 5 10 0 1 0 0 1
device=RESISTOR
T 19400 17200 5 10 0 1 0 0 1
vendor=Conrad
T 19400 17200 5 10 0 1 0 0 1
price=0.10
T 19400 17200 5 10 0 1 0 0 1
vendor_PN=402907
T 19400 17200 5 10 0 1 0 0 1
mfg=Yageo
T 19400 17200 5 10 0 1 0 0 1
mfg_PN=RC1206JR-071ML
T 19400 17200 5 10 0 1 0 0 1
footprint=RESC3216N____.fp
}
N 19300 17000 19300 17200 4
N 19300 18300 19300 18100 4
N 17100 19600 22900 19600 4
N 22900 19600 22900 17200 4
N 22900 18500 21700 18500 4
C 22800 17200 1 270 0 resistor-variable-2.sym
{
T 22700 16550 5 10 1 1 90 0 1
refdes=R211
T 23200 16800 5 10 1 1 90 0 1
value=10k
T 22800 17200 5 10 0 1 0 0 1
device=ADJUSTABLE_RESISTOR
T 22800 17200 5 10 0 1 0 0 1
vendor=Conrad
T 22800 17200 5 10 0 1 0 0 1
price=0.63
T 22800 17200 5 10 0 1 0 0 1
vendor_PN=421041
T 22800 17200 5 10 0 1 0 0 1
mfg=Panasonic
T 22800 17200 5 10 0 1 0 0 1
mfg_PN=EVM1D
T 22800 17200 5 10 0 1 0 0 1
footprint=TRIM_Panasonic_EVM1D__.fp
}
N 22900 16300 22900 15600 4
N 3900 8400 5300 8400 4
N 7900 11400 11600 11400 4
N 11600 11400 11600 8200 4
N 9200 8400 10300 8400 4
N 10300 8000 10100 8000 4
N 8600 6300 8600 5600 4
N 7900 5800 7900 5300 4
N 11300 8200 11800 8200 4
C 11800 8100 1 0 0 resistor-2.sym
{
T 12000 8400 5 10 1 1 0 0 1
refdes=R257
T 12000 7900 5 10 1 1 0 0 1
value=10k
T 11800 8100 5 10 0 1 0 0 1
device=RESISTOR
T 11800 8100 5 10 0 1 0 0 1
vendor=Conrad
T 11800 8100 5 10 0 1 0 0 1
price=0.10
T 11800 8100 5 10 0 1 0 0 1
vendor_PN=402664
T 11800 8100 5 10 0 1 0 0 1
mfg=Yageo
T 11800 8100 5 10 0 1 0 0 1
mfg_PN=RC1206JR-0710kL
T 11800 8100 5 10 0 1 0 0 1
footprint=RESC3216N____.fp
}
N 12700 8200 13200 8200 4
N 13200 7800 12900 7800 4
N 14200 8000 14900 8000 4
N 12900 8200 12900 9300 4
C 14900 8200 1 90 0 diode-3.sym
{
T 14400 8500 5 10 1 1 90 0 1
refdes=D251
T 15100 8500 5 10 1 1 90 0 1
value=LL4148
T 14900 8200 5 10 0 1 0 0 1
footprint=DIOMELF3216X16N____.fp
T 14900 8200 5 10 0 1 0 0 1
device=DIODE
T 14900 8200 5 10 0 1 0 0 1
vendor=Conrad
T 14900 8200 5 10 0 1 0 0 1
mfg=Diotec
T 14900 8200 5 10 0 1 0 0 1
price=0.10
T 14900 8200 5 10 0 1 0 0 1
vendor_PN=140902
T 14900 8200 5 10 0 1 0 0 1
mfg_PN=LL4148
}
N 14700 9300 14700 9100 4
N 14700 8200 14700 8000 4
C 15800 8200 1 180 0 diode-3.sym
{
T 15200 8300 5 10 1 1 0 0 1
refdes=D252
T 15200 7600 5 10 1 1 0 0 1
value=LL4148
T 15800 8200 5 10 0 1 0 0 1
footprint=DIOMELF3216X16N____.fp
T 15800 8200 5 10 0 1 0 0 1
device=DIODE
T 15800 8200 5 10 0 1 0 0 1
vendor=Conrad
T 15800 8200 5 10 0 1 0 0 1
mfg=Diotec
T 15800 8200 5 10 0 1 0 0 1
price=0.10
T 15800 8200 5 10 0 1 0 0 1
vendor_PN=140902
T 15800 8200 5 10 0 1 0 0 1
mfg_PN=LL4148
}
N 15800 8000 16200 8000 4
C 16200 7900 1 0 0 resistor-2.sym
{
T 16400 8200 5 10 1 1 0 0 1
refdes=R259
T 16400 7700 5 10 1 1 0 0 1
value=1k
T 16200 7900 5 10 0 1 0 0 1
device=RESISTOR
T 16200 7900 5 10 0 1 0 0 1
vendor=Conrad
T 16200 7900 5 10 0 1 0 0 1
price=0.10
T 16200 7900 5 10 0 1 0 0 1
vendor_PN=402540
T 16200 7900 5 10 0 1 0 0 1
mfg=Yageo
T 16200 7900 5 10 0 1 0 0 1
mfg_PN=RC1206JR-071kL
T 16200 7900 5 10 0 1 0 0 1
footprint=RESC3216N____.fp
}
C 16200 9200 1 0 0 resistor-2.sym
{
T 16400 9500 5 10 1 1 0 0 1
refdes=R258
T 16400 9000 5 10 1 1 0 0 1
value=15k
T 16200 9200 5 10 0 1 0 0 1
device=RESISTOR
T 16200 9200 5 10 0 1 0 0 1
vendor=Conrad
T 16200 9200 5 10 0 1 0 0 1
price=0.10
T 16200 9200 5 10 0 1 0 0 1
vendor_PN=402680
T 16200 9200 5 10 0 1 0 0 1
mfg=Yageo
T 16200 9200 5 10 0 1 0 0 1
mfg_PN=RC1206JR-0715kL
T 16200 9200 5 10 0 1 0 0 1
footprint=RESC3216N____.fp
}
N 12900 9300 16200 9300 4
N 19800 9300 19800 8400 4
N 17100 8000 20700 8000 4
N 20700 8400 19800 8400 4
C 18500 5800 1 90 0 diode-3.sym
{
T 18000 6100 5 10 1 1 90 0 1
refdes=D254
T 18700 6100 5 10 1 1 90 0 1
value=LL4148
T 18500 5800 5 10 0 1 0 0 1
footprint=DIOMELF3216X16N____.fp
T 18500 5800 5 10 0 1 0 0 1
device=DIODE
T 18500 5800 5 10 0 1 0 0 1
vendor=Conrad
T 18500 5800 5 10 0 1 0 0 1
mfg=Diotec
T 18500 5800 5 10 0 1 0 0 1
price=0.10
T 18500 5800 5 10 0 1 0 0 1
vendor_PN=140902
T 18500 5800 5 10 0 1 0 0 1
mfg_PN=LL4148
}
C 19500 5800 1 90 0 diode-3.sym
{
T 19000 6100 5 10 1 1 90 0 1
refdes=D253
T 19700 6100 5 10 1 1 90 0 1
value=LL4148
T 19500 5800 5 10 0 1 0 0 1
footprint=DIOMELF3216X16N____.fp
T 19500 5800 5 10 0 1 0 0 1
device=DIODE
T 19500 5800 5 10 0 1 0 0 1
vendor=Conrad
T 19500 5800 5 10 0 1 0 0 1
mfg=Diotec
T 19500 5800 5 10 0 1 0 0 1
price=0.10
T 19500 5800 5 10 0 1 0 0 1
vendor_PN=140902
T 19500 5800 5 10 0 1 0 0 1
mfg_PN=LL4148
}
N 3600 3900 18300 3900 4
N 3300 3400 19300 3400 4
N 18300 5800 18300 3900 4
N 19300 5800 19300 3400 4
N 18300 6700 18300 8000 4
C 19400 6900 1 90 0 resistor-2.sym
{
T 19100 7100 5 10 1 1 90 0 1
refdes=R260
T 19600 7100 5 10 1 1 90 0 1
value=1M
T 19400 6900 5 10 0 1 0 0 1
device=RESISTOR
T 19400 6900 5 10 0 1 0 0 1
vendor=Conrad
T 19400 6900 5 10 0 1 0 0 1
price=0.10
T 19400 6900 5 10 0 1 0 0 1
vendor_PN=402907
T 19400 6900 5 10 0 1 0 0 1
mfg=Yageo
T 19400 6900 5 10 0 1 0 0 1
mfg_PN=RC1206JR-071ML
T 19400 6900 5 10 0 1 0 0 1
footprint=RESC3216N____.fp
}
N 19300 6700 19300 6900 4
N 19300 8000 19300 7800 4
N 17100 9300 22900 9300 4
N 22900 9300 22900 6900 4
N 22900 8200 21700 8200 4
C 22800 6900 1 270 0 resistor-variable-2.sym
{
T 22700 6250 5 10 1 1 90 0 1
refdes=R261
T 23200 6500 5 10 1 1 90 0 1
value=10k
T 22800 6900 5 10 0 1 0 0 1
device=ADJUSTABLE_RESISTOR
T 22800 6900 5 10 0 1 0 0 1
vendor=Conrad
T 22800 6900 5 10 0 1 0 0 1
price=0.63
T 22800 6900 5 10 0 1 0 0 1
vendor_PN=421041
T 22800 6900 5 10 0 1 0 0 1
mfg=Panasonic
T 22800 6900 5 10 0 1 0 0 1
mfg_PN=EVM1D
T 22800 6900 5 10 0 1 0 0 1
footprint=TRIM_Panasonic_EVM1D__.fp
}
N 22900 6000 22900 5300 4
N 23400 6400 24100 6400 4
{
T 24700 6200 5 10 1 1 0 0 1
netname=OUT_63Hz
}
C 17100 6700 1 270 0 capacitor-2.sym
{
T 17000 6100 5 10 1 1 90 0 1
refdes=C253
T 18000 6500 5 10 0 1 270 0 1
symversion=0.1
T 17700 6100 5 10 1 1 90 0 1
value=1uF/50V
T 17100 6700 5 10 0 1 0 0 1
device=POLARIZED_CAPACITOR
T 17100 6700 5 10 0 1 0 0 1
footprint=CAPAE400X530N____.fp
T 17100 6700 5 10 0 1 0 0 1
vendor=Conrad
T 17100 6700 5 10 0 1 0 0 1
mfg_PN=RC1H105M04005VR
T 17100 6700 5 10 0 1 0 0 1
price=0.15
T 17100 6700 5 10 0 1 0 0 1
vendor_PN=421551
T 17100 6700 5 10 0 1 0 0 1
mfg=Samwha
}
N 17300 6700 17300 8000 4
N 17300 5800 17300 5300 4
C 17100 17000 1 270 0 capacitor-2.sym
{
T 17000 16400 5 10 1 1 90 0 1
refdes=C203
T 18000 16800 5 10 0 1 270 0 1
symversion=0.1
T 17700 16400 5 10 1 1 90 0 1
value=1uF/50V
T 17100 17000 5 10 0 1 0 0 1
device=POLARIZED_CAPACITOR
T 17100 17000 5 10 0 1 0 0 1
footprint=CAPAE400X530N____.fp
T 17100 17000 5 10 0 1 0 0 1
vendor=Conrad
T 17100 17000 5 10 0 1 0 0 1
mfg_PN=RC1H105M04005VR
T 17100 17000 5 10 0 1 0 0 1
price=0.15
T 17100 17000 5 10 0 1 0 0 1
vendor_PN=421551
T 17100 17000 5 10 0 1 0 0 1
mfg=Samwha
}
N 17300 17000 17300 18300 4
N 17300 16100 17300 15600 4
N 3600 3900 3600 16500 4
N 3300 16900 3300 3400 4
C 5300 8300 1 0 0 resistor-2.sym
{
T 5500 8600 5 10 1 1 0 0 1
refdes=R251
T 5500 8100 5 10 1 1 0 0 1
value=12k
T 5300 8300 5 10 0 1 0 0 1
device=RESISTOR
T 5300 8300 5 10 0 1 0 0 1
vendor=Conrad
T 5300 8300 5 10 0 1 0 0 1
price=0.10
T 5300 8300 5 10 0 1 0 0 1
vendor_PN=402672
T 5300 8300 5 10 0 1 0 0 1
mfg=Yageo
T 5300 8300 5 10 0 1 0 0 1
mfg_PN=RC1206JR-0712kL
T 5300 8300 5 10 0 1 0 0 1
footprint=RESC3216N____.fp
}
C 6600 8300 1 0 0 resistor-2.sym
{
T 6800 8600 5 10 1 1 0 0 1
refdes=R252
T 6800 8100 5 10 1 1 0 0 1
value=3k9
T 6600 8300 5 10 0 1 0 0 1
device=RESISTOR
T 6600 8300 5 10 0 1 0 0 1
vendor=Conrad
T 6600 8300 5 10 0 1 0 0 1
price=0.10
T 6600 8300 5 10 0 1 0 0 1
vendor_PN=402613
T 6600 8300 5 10 0 1 0 0 1
mfg=Yageo
T 6600 8300 5 10 0 1 0 0 1
mfg_PN=RC1206JR-073k9L
T 6600 8300 5 10 0 1 0 0 1
footprint=RESC3216N____.fp
}
N 6200 8400 6600 8400 4
C 8100 8800 1 90 0 capacitor-1.sym
{
T 7600 9000 5 10 1 1 90 0 1
refdes=C251
T 7200 9000 5 10 0 1 90 0 1
symversion=0.1
T 8300 9000 5 10 1 1 90 0 1
value=100nF
T 8100 8800 5 10 0 1 0 0 1
device=CAPACITOR
T 8100 8800 5 10 0 1 0 0 1
footprint=CAPC3216N____.fp
T 8100 8800 5 10 0 1 0 0 1
vendor=Conrad
T 8100 8800 5 10 0 1 0 0 1
mfg=Yageo
T 8100 8800 5 10 0 1 0 0 1
price=0.14
T 8100 8800 5 10 0 1 0 0 1
vendor_PN=445273
T 8100 8800 5 10 0 1 0 0 1
mfg_PN=CC1206KRX7R9BB104
}
C 8300 8200 1 0 0 capacitor-1.sym
{
T 8500 8700 5 10 1 1 0 0 1
refdes=C252
T 8500 9100 5 10 0 1 0 0 1
symversion=0.1
T 8400 8000 5 10 1 1 0 0 1
value=100nF
T 8300 8200 5 10 0 1 0 0 1
device=CAPACITOR
T 8300 8200 5 10 0 1 0 0 1
footprint=CAPC3216N____.fp
T 8300 8200 5 10 0 1 0 0 1
vendor=Conrad
T 8300 8200 5 10 0 1 0 0 1
mfg=Yageo
T 8300 8200 5 10 0 1 0 0 1
price=0.14
T 8300 8200 5 10 0 1 0 0 1
vendor_PN=445273
T 8300 8200 5 10 0 1 0 0 1
mfg_PN=CC1206KRX7R9BB104
}
C 9700 8800 1 90 0 resistor-2.sym
{
T 9400 9000 5 10 1 1 90 0 1
refdes=R256
T 9900 9000 5 10 1 1 90 0 1
value=39k
T 9700 8800 5 10 0 1 0 0 1
device=RESISTOR
T 9700 8800 5 10 0 1 0 0 1
vendor=Conrad
T 9700 8800 5 10 0 1 0 0 1
price=0.10
T 9700 8800 5 10 0 1 0 0 1
vendor_PN=402737
T 9700 8800 5 10 0 1 0 0 1
mfg=Yageo
T 9700 8800 5 10 0 1 0 0 1
mfg_PN=RC1206JR-0739kL
T 9700 8800 5 10 0 1 0 0 1
footprint=RESC3216N____.fp
}
C 9700 10100 1 90 0 resistor-2.sym
{
T 9400 10300 5 10 1 1 90 0 1
refdes=R255
T 9900 10300 5 10 1 1 90 0 1
value=120k
T 9700 10100 5 10 0 1 0 0 1
device=RESISTOR
T 9700 10100 5 10 0 1 0 0 1
vendor=Conrad
T 9700 10100 5 10 0 1 0 0 1
price=0.10
T 9700 10100 5 10 0 1 0 0 1
vendor_PN=402796
T 9700 10100 5 10 0 1 0 0 1
mfg=Yageo
T 9700 10100 5 10 0 1 0 0 1
mfg_PN=RC1206JR-07120kL
T 9700 10100 5 10 0 1 0 0 1
footprint=RESC3216N____.fp
}
N 9600 9700 9600 10100 4
N 7500 8400 8300 8400 4
N 7900 8400 7900 8800 4
N 9600 8400 9600 8800 4
C 8000 7100 1 90 0 resistor-2.sym
{
T 7700 7300 5 10 1 1 90 0 1
refdes=R253
T 8200 7300 5 10 1 1 90 0 1
value=2k2
T 8000 7100 5 10 0 1 0 0 1
device=RESISTOR
T 8000 7100 5 10 0 1 0 0 1
vendor=Conrad
T 8000 7100 5 10 0 1 0 0 1
price=0.10
T 8000 7100 5 10 0 1 0 0 1
vendor_PN=402583
T 8000 7100 5 10 0 1 0 0 1
mfg=Yageo
T 8000 7100 5 10 0 1 0 0 1
mfg_PN=RC1206JR-072k2L
T 8000 7100 5 10 0 1 0 0 1
footprint=RESC3216N____.fp
}
N 7900 8400 7900 8000 4
C 7800 5800 1 270 1 resistor-variable-2.sym
{
T 7700 6050 5 10 1 1 90 0 1
refdes=R254
T 8200 6000 5 10 1 1 90 0 1
value=5k
T 7800 5800 5 10 0 1 0 0 1
device=ADJUSTABLE_RESISTOR
T 7800 5800 5 10 0 1 0 0 1
vendor=Conrad
T 7800 5800 5 10 0 1 0 0 1
price=0.63
T 7800 5800 5 10 0 1 0 0 1
vendor_PN=421028
T 7800 5800 5 10 0 1 0 0 1
mfg=Panasonic
T 7800 5800 5 10 0 1 0 0 1
mfg_PN=EVM1D
T 7800 5800 5 10 0 1 0 0 1
footprint=TRIM_Panasonic_EVM1D__.fp
}
N 7900 7100 7900 6700 4
N 8400 6300 8600 6300 4
N 9600 11000 9600 11400 4
N 7900 9700 7900 11400 4
C 100 100 0 0 0 A1-sheet.sym
{
T 30200 500 5 10 1 1 0 0 1
revision=20150321
T 30200 200 5 10 1 1 0 0 1
author=Bert Timmerman
T 26300 200 5 10 1 1 0 0 1
page=01
T 26300 500 5 10 1 1 0 0 1
file=26.006.01.01.01.sch
T 27800 200 5 10 1 1 0 0 1
pages=01
T 26300 800 5 10 1 1 0 0 1
device=OCTAVE_FILTER
T 26300 1000 5 10 1 1 0 0 1
comment=schematic
T 26300 1200 5 10 1 1 0 0 1
description=Octave Filter 31.5 Hz and 63 Hz module (DFM - PTH+SMT)
}
C 10300 18000 1 0 0 CA3140M_np.sym
{
T 11100 18200 5 8 0 1 0 0 1
device=OPAMP
T 10500 19100 5 10 1 1 0 0 1
refdes=U201
T 10300 18000 5 10 0 1 0 0 1
footprint=SOIC127P600X155-8N____.fp
T 10500 18900 5 8 1 1 0 0 1
value=CA3140M
T 10300 18000 5 10 0 1 0 0 1
mfg=Harris
T 10300 18000 5 10 0 1 0 0 1
mfg_PN=CA3140M
T 10300 18000 5 10 0 1 0 0 1
price=1.59
T 10300 18000 5 10 0 1 0 0 1
vendor=Conrad
T 10300 18000 5 10 0 1 0 0 1
vendor_PN=142107
T 10500 19300 5 10 0 0 0 0 1
symversion=20090414
}
C 13200 17800 1 0 0 CA3140M_np.sym
{
T 14000 18000 5 8 0 1 0 0 1
device=OPAMP
T 13400 18900 5 10 1 1 0 0 1
refdes=U202
T 13200 17800 5 10 0 1 0 0 1
footprint=SOIC127P600X155-8N____.fp
T 13400 18700 5 8 1 1 0 0 1
value=CA3140M
T 13200 17800 5 10 0 1 0 0 1
mfg=Harris
T 13200 17800 5 10 0 1 0 0 1
mfg_PN=CA3140M
T 13200 17800 5 10 0 1 0 0 1
price=1.59
T 13200 17800 5 10 0 1 0 0 1
vendor=Conrad
T 13200 17800 5 10 0 1 0 0 1
vendor_PN=142107
T 13400 19100 5 10 0 0 0 0 1
symversion=20090414
}
C 20700 18000 1 0 0 CA3140M_np.sym
{
T 21500 18200 5 8 0 1 0 0 1
device=OPAMP
T 20900 19100 5 10 1 1 0 0 1
refdes=U203
T 20700 18000 5 10 0 1 0 0 1
footprint=SOIC127P600X155-8N____.fp
T 20900 18900 5 8 1 1 0 0 1
value=CA3140M
T 20700 18000 5 10 0 1 0 0 1
mfg=Harris
T 20700 18000 5 10 0 1 0 0 1
mfg_PN=CA3140M
T 20700 18000 5 10 0 1 0 0 1
price=1.59
T 20700 18000 5 10 0 1 0 0 1
vendor=Conrad
T 20700 18000 5 10 0 1 0 0 1
vendor_PN=142107
T 20900 19300 5 10 0 0 0 0 1
symversion=20090414
}
C 10300 7700 1 0 0 CA3140M_np.sym
{
T 11100 7900 5 8 0 1 0 0 1
device=OPAMP
T 10500 8800 5 10 1 1 0 0 1
refdes=U251
T 10300 7700 5 10 0 1 0 0 1
footprint=SOIC127P600X155-8N____.fp
T 10500 8600 5 8 1 1 0 0 1
value=CA3140M
T 10300 7700 5 10 0 1 0 0 1
mfg=Harris
T 10300 7700 5 10 0 1 0 0 1
mfg_PN=CA3140M
T 10300 7700 5 10 0 1 0 0 1
price=1.59
T 10300 7700 5 10 0 1 0 0 1
vendor=Conrad
T 10300 7700 5 10 0 1 0 0 1
vendor_PN=142107
T 10500 9000 5 10 0 0 0 0 1
symversion=20090414
}
C 13200 7500 1 0 0 CA3140M_np.sym
{
T 14000 7700 5 8 0 1 0 0 1
device=OPAMP
T 13400 8600 5 10 1 1 0 0 1
refdes=U252
T 13200 7500 5 10 0 1 0 0 1
footprint=SOIC127P600X155-8N____.fp
T 13400 8400 5 8 1 1 0 0 1
value=CA3140M
T 13200 7500 5 10 0 1 0 0 1
mfg=Harris
T 13200 7500 5 10 0 1 0 0 1
mfg_PN=CA3140M
T 13200 7500 5 10 0 1 0 0 1
price=1.59
T 13200 7500 5 10 0 1 0 0 1
vendor=Conrad
T 13200 7500 5 10 0 1 0 0 1
vendor_PN=142107
T 13400 8800 5 10 0 0 0 0 1
symversion=20090414
}
C 20700 7700 1 0 0 CA3140M_np.sym
{
T 21500 7900 5 8 0 1 0 0 1
device=OPAMP
T 20900 8800 5 10 1 1 0 0 1
refdes=U253
T 20700 7700 5 10 0 1 0 0 1
footprint=SOIC127P600X155-8N____.fp
T 20900 8600 5 8 1 1 0 0 1
value=CA3140M
T 20700 7700 5 10 0 1 0 0 1
mfg=Harris
T 20700 7700 5 10 0 1 0 0 1
mfg_PN=CA3140M
T 20700 7700 5 10 0 1 0 0 1
price=1.59
T 20700 7700 5 10 0 1 0 0 1
vendor=Conrad
T 20700 7700 5 10 0 1 0 0 1
vendor_PN=142107
T 20900 9000 5 10 0 0 0 0 1
symversion=20090414
}
N 23400 16700 24100 16700 4
{
T 24700 16500 5 10 1 1 0 0 1
netname=OUT_31Hz5
}
N 4200 12000 23900 12000 4
N 23900 12000 23900 6400 4
N 3900 8400 3900 18700 4
N 3900 18700 5300 18700 4
C 3200 17600 1 90 0 gnd-1.sym
N 2900 17700 1800 17700 4
N 10700 16600 10700 16400 4
N 10700 17100 10700 17300 4
C 10600 16500 1 0 0 CA3140M_pwr.sym
{
T 10675 17025 5 6 1 1 0 6 1
refdes=U201
T 10600 16500 5 10 0 1 0 0 1
device=OPAMP
T 10600 16500 5 10 0 1 0 0 1
footprint=SOIC127P600X155-8N____.fp
T 10900 16800 5 10 1 1 0 0 1
value=CA3140M
T 10600 16500 5 10 0 1 0 0 1
mfg=Harris
T 10600 16500 5 10 0 1 0 0 1
mfg_PN=CA3140M
T 10600 16500 5 10 0 1 0 0 1
price=1.59
T 10600 16500 5 10 0 1 0 0 1
vendor=Conrad
T 10600 16500 5 10 0 1 0 0 1
vendor_PN=142107
T 10600 16500 5 10 0 0 0 0 1
symversion=20090414
}
N 2900 18100 1800 18100 4
N 2900 17300 1800 17300 4
C 7800 15300 1 0 0 gnd-1.sym
C 10000 18000 1 0 0 gnd-1.sym
C 12800 17800 1 0 0 gnd-1.sym
C 17200 15300 1 0 0 gnd-1.sym
C 22800 15300 1 0 0 gnd-1.sym
N 7900 15900 8600 15900 4
C 7800 5000 1 0 0 gnd-1.sym
N 7900 5600 8600 5600 4
C 10000 7700 1 0 0 gnd-1.sym
C 12800 7500 1 0 0 gnd-1.sym
C 17200 5000 1 0 0 gnd-1.sym
C 22800 5000 1 0 0 gnd-1.sym
N 13800 16600 13800 16400 4
N 13800 17100 13800 17300 4
C 13700 16500 1 0 0 CA3140M_pwr.sym
{
T 13775 17025 5 6 1 1 0 6 1
refdes=U202
T 13700 16500 5 10 0 1 0 0 1
device=OPAMP
T 13700 16500 5 10 0 1 0 0 1
footprint=SOIC127P600X155-8N____.fp
T 14000 16800 5 10 1 1 0 0 1
value=CA3140M
T 13700 16500 5 10 0 1 0 0 1
mfg=Harris
T 13700 16500 5 10 0 1 0 0 1
mfg_PN=CA3140M
T 13700 16500 5 10 0 1 0 0 1
price=1.59
T 13700 16500 5 10 0 1 0 0 1
vendor=Conrad
T 13700 16500 5 10 0 1 0 0 1
vendor_PN=142107
T 13700 16500 5 10 0 0 0 0 1
symversion=20090414
}
N 21100 16600 21100 16400 4
N 21100 17100 21100 17300 4
C 21000 16500 1 0 0 CA3140M_pwr.sym
{
T 21075 17025 5 6 1 1 0 6 1
refdes=U203
T 21000 16500 5 10 0 1 0 0 1
device=OPAMP
T 21000 16500 5 10 0 1 0 0 1
footprint=SOIC127P600X155-8N____.fp
T 21300 16800 5 10 1 1 0 0 1
value=CA3140M
T 21000 16500 5 10 0 1 0 0 1
mfg=Harris
T 21000 16500 5 10 0 1 0 0 1
mfg_PN=CA3140M
T 21000 16500 5 10 0 1 0 0 1
price=1.59
T 21000 16500 5 10 0 1 0 0 1
vendor=Conrad
T 21000 16500 5 10 0 1 0 0 1
vendor_PN=142107
T 21000 16500 5 10 0 0 0 0 1
symversion=20090414
}
N 10700 6400 10700 6200 4
N 10700 6900 10700 7100 4
C 10600 6300 1 0 0 CA3140M_pwr.sym
{
T 10675 6825 5 6 1 1 0 6 1
refdes=U251
T 10600 6300 5 10 0 1 0 0 1
device=OPAMP
T 10600 6300 5 10 0 1 0 0 1
footprint=SOIC127P600X155-8N____.fp
T 10900 6600 5 10 1 1 0 0 1
value=CA3140M
T 10600 6300 5 10 0 1 0 0 1
mfg=Harris
T 10600 6300 5 10 0 1 0 0 1
mfg_PN=CA3140M
T 10600 6300 5 10 0 1 0 0 1
price=1.59
T 10600 6300 5 10 0 1 0 0 1
vendor=Conrad
T 10600 6300 5 10 0 1 0 0 1
vendor_PN=142107
T 10600 6300 5 10 0 0 0 0 1
symversion=20090414
}
N 13800 6400 13800 6200 4
N 13800 6900 13800 7100 4
C 13700 6300 1 0 0 CA3140M_pwr.sym
{
T 13775 6825 5 6 1 1 0 6 1
refdes=U252
T 13700 6300 5 10 0 1 0 0 1
device=OPAMP
T 13700 6300 5 10 0 1 0 0 1
footprint=SOIC127P600X155-8N____.fp
T 14000 6600 5 10 1 1 0 0 1
value=CA3140M
T 13700 6300 5 10 0 1 0 0 1
mfg=Harris
T 13700 6300 5 10 0 1 0 0 1
mfg_PN=CA3140M
T 13700 6300 5 10 0 1 0 0 1
price=1.59
T 13700 6300 5 10 0 1 0 0 1
vendor=Conrad
T 13700 6300 5 10 0 1 0 0 1
vendor_PN=142107
T 13700 6300 5 10 0 0 0 0 1
symversion=20090414
}
N 21100 6400 21100 6200 4
N 21100 6900 21100 7100 4
C 21000 6300 1 0 0 CA3140M_pwr.sym
{
T 21075 6825 5 6 1 1 0 6 1
refdes=U253
T 21000 6300 5 10 0 1 0 0 1
device=OPAMP
T 21000 6300 5 10 0 1 0 0 1
footprint=SOIC127P600X155-8N____.fp
T 21300 6600 5 10 1 1 0 0 1
value=CA3140M
T 21000 6300 5 10 0 1 0 0 1
mfg=Harris
T 21000 6300 5 10 0 1 0 0 1
mfg_PN=CA3140M
T 21000 6300 5 10 0 1 0 0 1
price=1.59
T 21000 6300 5 10 0 1 0 0 1
vendor=Conrad
T 21000 6300 5 10 0 1 0 0 1
vendor_PN=142107
T 21000 6300 5 10 0 0 0 0 1
symversion=20090414
}
C 1800 15700 1 0 1 CON-SIL-254P-8.sym
{
T 1600 19700 5 10 0 1 0 6 1
footprint=CON-SIL-254P-8N____.fp
T 1600 19500 5 10 0 1 0 6 1
device=CONNECTOR
T 1500 19200 5 10 1 1 0 6 1
refdes=P201
T 1800 15700 5 10 0 1 0 0 1
vendor=Conrad
T 1800 15700 5 10 0 1 0 0 1
mfg=Ratioplast-Electronics
T 1800 15700 5 10 0 1 0 0 1
mfg_PN=STL120838003
T 1800 15700 5 10 0 1 0 0 1
price=0.37
T 1800 15700 5 10 0 1 0 0 1
vendor_PN=739472
T 1600 19500 5 10 0 0 0 6 1
symversion=20090502
}
N 23900 16700 23900 22400 4
N 23900 22400 4200 22400 4
N 4200 22400 4200 18900 4
N 4200 18900 1800 18900 4
{
T 2000 19000 5 10 1 1 0 0 1
netname=OUT_31Hz5
}
N 1800 18500 4200 18500 4
{
T 2000 18600 5 10 1 1 0 0 1
netname=OUT_63Hz
}
N 4200 18500 4200 12000 4
N 1800 16900 3300 16900 4
{
T 2000 17000 5 10 1 1 0 0 1
netname=FOLLOW
}
N 1800 16500 3600 16500 4
{
T 2000 16600 5 10 1 1 0 0 1
netname=RESET
}
C 10200 16200 1 90 0 capacitor-1.sym
{
T 9700 16400 5 10 1 1 90 0 1
refdes=C205
T 9300 16400 5 10 0 1 90 0 1
symversion=0.1
T 10400 16400 5 10 1 1 90 0 1
value=100nF
T 10200 16200 5 10 0 1 0 0 1
device=CAPACITOR
T 10200 16200 5 10 0 1 0 0 1
footprint=CAPC3216N____.fp
T 10200 16200 5 10 0 1 0 0 1
vendor=Conrad
T 10200 16200 5 10 0 1 0 0 1
price=0.14
T 10200 16200 5 10 0 1 0 0 1
vendor_PN=445273
T 10200 16200 5 10 0 1 0 0 1
mfg_PN=CC1206KRX7R9BB104
T 10200 16200 5 10 0 1 0 0 1
mfg=Yageo
}
N 10700 17200 10000 17200 4
N 10000 17200 10000 17100 4
C 9900 15800 1 0 0 gnd-1.sym
N 10000 16200 10000 16100 4
C 11600 15500 1 90 0 capacitor-1.sym
{
T 11100 15700 5 10 1 1 90 0 1
refdes=C204
T 10700 15700 5 10 0 1 90 0 1
symversion=0.1
T 11800 15700 5 10 1 1 90 0 1
value=100nF
T 11600 15500 5 10 0 1 0 0 1
device=CAPACITOR
T 11600 15500 5 10 0 1 0 0 1
vendor=Conrad
T 11600 15500 5 10 0 1 0 0 1
price=0.14
T 11600 15500 5 10 0 1 0 0 1
vendor_PN=445273
T 11600 15500 5 10 0 1 0 0 1
mfg_PN=CC1206KRX7R9BB104
T 11600 15500 5 10 0 1 0 0 1
footprint=CAPC3216N____.fp
T 11600 15500 5 10 0 1 0 0 1
mfg=Yageo
}
N 11400 16500 11400 16400 4
C 11300 15100 1 0 0 gnd-1.sym
N 11400 15500 11400 15400 4
N 11400 16500 10700 16500 4
C 14700 15500 1 90 0 capacitor-1.sym
{
T 14200 15700 5 10 1 1 90 0 1
refdes=C206
T 13800 15700 5 10 0 1 90 0 1
symversion=0.1
T 14900 15700 5 10 1 1 90 0 1
value=100nF
T 14700 15500 5 10 0 1 0 0 1
device=CAPACITOR
T 14700 15500 5 10 0 1 0 0 1
footprint=CAPC3216N____.fp
T 14700 15500 5 10 0 1 0 0 1
vendor=Conrad
T 14700 15500 5 10 0 1 0 0 1
price=0.14
T 14700 15500 5 10 0 1 0 0 1
vendor_PN=445273
T 14700 15500 5 10 0 1 0 0 1
mfg_PN=CC1206KRX7R9BB104
T 14700 15500 5 10 0 1 0 0 1
mfg=Yageo
}
N 14500 16500 14500 16400 4
C 14400 15100 1 0 0 gnd-1.sym
N 14500 15500 14500 15400 4
N 14500 16500 13800 16500 4
C 13300 16200 1 90 0 capacitor-1.sym
{
T 12800 16400 5 10 1 1 90 0 1
refdes=C207
T 12400 16400 5 10 0 1 90 0 1
symversion=0.1
T 13500 16400 5 10 1 1 90 0 1
value=100nF
T 13300 16200 5 10 0 1 0 0 1
device=CAPACITOR
T 13300 16200 5 10 0 1 0 0 1
footprint=CAPC3216N____.fp
T 13300 16200 5 10 0 1 0 0 1
vendor=Conrad
T 13300 16200 5 10 0 1 0 0 1
price=0.14
T 13300 16200 5 10 0 1 0 0 1
vendor_PN=445273
T 13300 16200 5 10 0 1 0 0 1
mfg_PN=CC1206KRX7R9BB104
T 13300 16200 5 10 0 1 0 0 1
mfg=Yageo
}
N 13100 17200 13100 17100 4
C 13000 15800 1 0 0 gnd-1.sym
N 13100 16200 13100 16100 4
N 13800 17200 13100 17200 4
C 20600 16200 1 90 0 capacitor-1.sym
{
T 20100 16400 5 10 1 1 90 0 1
refdes=C209
T 19700 16400 5 10 0 1 90 0 1
symversion=0.1
T 20800 16400 5 10 1 1 90 0 1
value=100nF
T 20600 16200 5 10 0 1 0 0 1
device=CAPACITOR
T 20600 16200 5 10 0 1 0 0 1
footprint=CAPC3216N____.fp
T 20600 16200 5 10 0 1 0 0 1
vendor=Conrad
T 20600 16200 5 10 0 1 0 0 1
price=0.14
T 20600 16200 5 10 0 1 0 0 1
vendor_PN=445273
T 20600 16200 5 10 0 1 0 0 1
mfg_PN=CC1206KRX7R9BB104
T 20600 16200 5 10 0 1 0 0 1
mfg=Yageo
}
N 20400 17200 20400 17100 4
C 20300 15800 1 0 0 gnd-1.sym
N 20400 16200 20400 16100 4
N 21100 17200 20400 17200 4
C 22000 15500 1 90 0 capacitor-1.sym
{
T 21500 15700 5 10 1 1 90 0 1
refdes=C208
T 21100 15700 5 10 0 1 90 0 1
symversion=0.1
T 22200 15700 5 10 1 1 90 0 1
value=100nF
T 22000 15500 5 10 0 1 0 0 1
device=CAPACITOR
T 22000 15500 5 10 0 1 0 0 1
footprint=CAPC3216N____.fp
T 22000 15500 5 10 0 1 0 0 1
vendor=Conrad
T 22000 15500 5 10 0 1 0 0 1
price=0.14
T 22000 15500 5 10 0 1 0 0 1
vendor_PN=445273
T 22000 15500 5 10 0 1 0 0 1
mfg_PN=CC1206KRX7R9BB104
T 22000 15500 5 10 0 1 0 0 1
mfg=Yageo
}
N 21800 16500 21800 16400 4
C 21700 15100 1 0 0 gnd-1.sym
N 21800 15500 21800 15400 4
N 21800 16500 21100 16500 4
C 22000 5300 1 90 0 capacitor-1.sym
{
T 21500 5500 5 10 1 1 90 0 1
refdes=C258
T 21100 5500 5 10 0 1 90 0 1
symversion=0.1
T 22200 5500 5 10 1 1 90 0 1
value=100nF
T 22000 5300 5 10 0 1 0 0 1
device=CAPACITOR
T 22000 5300 5 10 0 1 0 0 1
footprint=CAPC3216N____.fp
T 22000 5300 5 10 0 1 0 0 1
vendor=Conrad
T 22000 5300 5 10 0 1 0 0 1
price=0.14
T 22000 5300 5 10 0 1 0 0 1
vendor_PN=445273
T 22000 5300 5 10 0 1 0 0 1
mfg_PN=CC1206KRX7R9BB104
T 22000 5300 5 10 0 1 0 0 1
mfg=Yageo
}
N 21800 6300 21800 6200 4
C 21700 4900 1 0 0 gnd-1.sym
N 21800 5300 21800 5200 4
N 21800 6300 21100 6300 4
C 20600 6000 1 90 0 capacitor-1.sym
{
T 20100 6200 5 10 1 1 90 0 1
refdes=C259
T 19700 6200 5 10 0 1 90 0 1
symversion=0.1
T 20800 6200 5 10 1 1 90 0 1
value=100nF
T 20600 6000 5 10 0 1 0 0 1
device=CAPACITOR
T 20600 6000 5 10 0 1 0 0 1
footprint=CAPC3216N____.fp
T 20600 6000 5 10 0 1 0 0 1
vendor=Conrad
T 20600 6000 5 10 0 1 0 0 1
price=0.14
T 20600 6000 5 10 0 1 0 0 1
vendor_PN=445273
T 20600 6000 5 10 0 1 0 0 1
mfg_PN=CC1206KRX7R9BB104
T 20600 6000 5 10 0 1 0 0 1
mfg=Yageo
}
N 20400 7000 20400 6900 4
C 20300 5600 1 0 0 gnd-1.sym
N 20400 6000 20400 5900 4
N 21100 7000 20400 7000 4
C 14700 5300 1 90 0 capacitor-1.sym
{
T 14200 5500 5 10 1 1 90 0 1
refdes=C256
T 13800 5500 5 10 0 1 90 0 1
symversion=0.1
T 14900 5500 5 10 1 1 90 0 1
value=100nF
T 14700 5300 5 10 0 1 0 0 1
device=CAPACITOR
T 14700 5300 5 10 0 1 0 0 1
footprint=CAPC3216N____.fp
T 14700 5300 5 10 0 1 0 0 1
vendor=Conrad
T 14700 5300 5 10 0 1 0 0 1
price=0.14
T 14700 5300 5 10 0 1 0 0 1
vendor_PN=445273
T 14700 5300 5 10 0 1 0 0 1
mfg_PN=CC1206KRX7R9BB104
T 14700 5300 5 10 0 1 0 0 1
mfg=Yageo
}
N 14500 6300 14500 6200 4
C 14400 4900 1 0 0 gnd-1.sym
N 14500 5300 14500 5200 4
C 13300 6000 1 90 0 capacitor-1.sym
{
T 12800 6200 5 10 1 1 90 0 1
refdes=C257
T 12400 6200 5 10 0 1 90 0 1
symversion=0.1
T 13500 6200 5 10 1 1 90 0 1
value=100nF
T 13300 6000 5 10 0 1 0 0 1
device=CAPACITOR
T 13300 6000 5 10 0 1 0 0 1
footprint=CAPC3216N____.fp
T 13300 6000 5 10 0 1 0 0 1
vendor=Conrad
T 13300 6000 5 10 0 1 0 0 1
price=0.14
T 13300 6000 5 10 0 1 0 0 1
vendor_PN=445273
T 13300 6000 5 10 0 1 0 0 1
mfg_PN=CC1206KRX7R9BB104
T 13300 6000 5 10 0 1 0 0 1
mfg=Yageo
}
N 13100 7000 13100 6900 4
C 13000 5600 1 0 0 gnd-1.sym
N 13100 6000 13100 5900 4
N 13800 7000 13100 7000 4
N 14500 6300 13800 6300 4
C 11600 5300 1 90 0 capacitor-1.sym
{
T 11100 5500 5 10 1 1 90 0 1
refdes=C254
T 10700 5500 5 10 0 1 90 0 1
symversion=0.1
T 11800 5500 5 10 1 1 90 0 1
value=100nF
T 11600 5300 5 10 0 1 0 0 1
device=CAPACITOR
T 11600 5300 5 10 0 1 0 0 1
footprint=CAPC3216N____.fp
T 11600 5300 5 10 0 1 0 0 1
vendor=Conrad
T 11600 5300 5 10 0 1 0 0 1
price=0.14
T 11600 5300 5 10 0 1 0 0 1
vendor_PN=445273
T 11600 5300 5 10 0 1 0 0 1
mfg_PN=CC1206KRX7R9BB104
T 11600 5300 5 10 0 1 0 0 1
mfg=Yageo
}
N 11400 6300 11400 6200 4
C 11300 4900 1 0 0 gnd-1.sym
N 11400 5300 11400 5200 4
C 10200 6000 1 90 0 capacitor-1.sym
{
T 9700 6200 5 10 1 1 90 0 1
refdes=C255
T 9300 6200 5 10 0 1 90 0 1
symversion=0.1
T 10400 6200 5 10 1 1 90 0 1
value=100nF
T 10200 6000 5 10 0 1 0 0 1
device=CAPACITOR
T 10200 6000 5 10 0 1 0 0 1
footprint=CAPC3216N____.fp
T 10200 6000 5 10 0 1 0 0 1
vendor=Conrad
T 10200 6000 5 10 0 1 0 0 1
price=0.14
T 10200 6000 5 10 0 1 0 0 1
vendor_PN=445273
T 10200 6000 5 10 0 1 0 0 1
mfg_PN=CC1206KRX7R9BB104
T 10200 6000 5 10 0 1 0 0 1
mfg=Yageo
}
N 10000 7000 10000 6900 4
C 9900 5600 1 0 0 gnd-1.sym
N 10000 6000 10000 5900 4
N 10700 7000 10000 7000 4
N 10700 6300 11400 6300 4
C 2900 18300 1 270 0 15V-minus.sym
C 2900 17500 1 270 0 15V-plus.sym
C 10500 17300 1 0 0 15V-plus.sym
C 10900 16400 1 180 0 15V-minus.sym
C 13600 17300 1 0 0 15V-plus.sym
C 14000 16400 1 180 0 15V-minus.sym
C 20900 17300 1 0 0 15V-plus.sym
C 21300 16400 1 180 0 15V-minus.sym
C 10500 7100 1 0 0 15V-plus.sym
C 10900 6200 1 180 0 15V-minus.sym
C 13600 7100 1 0 0 15V-plus.sym
C 14000 6200 1 180 0 15V-minus.sym
C 20900 7100 1 0 0 15V-plus.sym
C 21300 6200 1 180 0 15V-minus.sym
C 24000 13400 1 0 0 gnd-1.sym
N 24100 13800 24100 13700 4
{
T 24700 13600 5 10 1 1 0 0 1
netname=GND
}
C 25000 13700 1 0 1 CON-TP.sym
{
T 24700 14800 5 10 0 0 0 6 1
device=TEST_POINT
T 24690 14400 5 10 0 0 0 6 1
footprint=CON-TP_Keystone_5000_compact_red.fp
T 24700 14200 5 10 0 0 0 6 1
symversion=20090501
T 24700 13800 5 10 1 1 0 0 1
refdes=TP202
}
C 25000 16600 1 0 1 CON-TP.sym
{
T 24700 17700 5 10 0 0 0 6 1
device=TEST_POINT
T 24690 17300 5 10 0 0 0 6 1
footprint=CON-TP_Keystone_5000_compact_red.fp
T 24700 17100 5 10 0 0 0 6 1
symversion=20090501
T 24700 16700 5 10 1 1 0 0 1
refdes=TP201
}
C 25000 6300 1 0 1 CON-TP.sym
{
T 24700 7400 5 10 0 0 0 6 1
device=TEST_POINT
T 24690 7000 5 10 0 0 0 6 1
footprint=CON-TP_Keystone_5000_compact_red.fp
T 24700 6800 5 10 0 0 0 6 1
symversion=20090501
T 24700 6400 5 10 1 1 0 0 1
refdes=TP251
}
