v 20110115 2
N 10300 10100 17600 10100 4
N 12100 13000 13400 13000 4
{
T 12900 13200 5 10 1 1 0 7 1
netname=PREAMP
}
C 13400 12900 1 0 0 resistor-2.sym
{
T 13600 13200 5 10 1 1 0 0 1
refdes=R251
T 13600 12700 5 10 1 1 0 0 1
value=12k
T 13400 12900 5 10 0 1 0 0 1
footprint=RES1016
T 13400 12900 5 10 0 1 0 0 1
device=RESISTOR
}
C 14700 12900 1 0 0 resistor-2.sym
{
T 14900 13200 5 10 1 1 0 0 1
refdes=R252
T 14900 12700 5 10 1 1 0 0 1
value=3k9
T 14700 12900 5 10 0 1 0 0 1
device=RESISTOR
T 14700 12900 5 10 0 1 0 0 1
footprint=RES1016
}
N 14300 13000 14700 13000 4
C 16100 13600 1 90 0 capacitor-1.sym
{
T 15600 13800 5 10 1 1 90 0 1
refdes=C251
T 15200 13800 5 10 0 1 90 0 1
symversion=0.1
T 16300 13800 5 10 1 1 90 0 1
value=100n
T 16100 13600 5 10 0 1 0 0 1
device=CAPACITOR
T 16100 13600 5 10 0 1 0 0 1
footprint=CAPA750-490X750X900
T 16100 13600 5 10 0 1 0 0 1
Vendor=Conrad
T 16100 13600 5 10 0 1 0 0 1
Vendor_PN=501071
T 16100 13600 5 10 0 1 0 0 1
Mfg=Epcos
}
C 16300 13000 1 0 0 capacitor-1.sym
{
T 16500 13500 5 10 1 1 0 0 1
refdes=C252
T 16500 13900 5 10 0 1 0 0 1
symversion=0.1
T 16400 12800 5 10 1 1 0 0 1
value=220n
T 16300 13000 5 10 0 1 0 0 1
device=CAPACITOR
T 16300 13000 5 10 0 1 0 0 1
footprint=CAPA750-490X750X900
T 16300 13000 5 10 0 1 0 0 1
Vendor=Conrad
T 16300 13000 5 10 0 1 0 0 1
Vendor_PN=501071
T 16300 13000 5 10 0 1 0 0 1
Mfg=Epcos
}
C 17700 13600 1 90 0 resistor-2.sym
{
T 17400 13800 5 10 1 1 90 0 1
refdes=R256
T 17900 13800 5 10 1 1 90 0 1
value=39k
T 17700 13600 5 10 0 1 0 0 1
device=RESISTOR
T 17700 13600 5 10 0 1 0 0 1
footprint=RES1016-635X229
}
C 17700 14900 1 90 0 resistor-2.sym
{
T 17400 15100 5 10 1 1 90 0 1
refdes=R255
T 17900 15100 5 10 1 1 90 0 1
value=120k
T 17700 14900 5 10 0 1 0 0 1
device=RESISTOR
T 17700 14900 5 10 0 1 0 0 1
footprint=RES1016
}
N 17600 14500 17600 14900 4
N 15900 13200 16300 13200 4
N 15900 12800 15900 13600 4
N 17600 13200 17600 13600 4
N 15900 14500 15900 16200 4
N 17600 15800 17600 16200 4
N 15900 16200 19700 16200 4
{
T 20000 13800 5 10 1 1 0 0 1
netname=V251
}
N 19700 16200 19700 13000 4
N 17200 13200 18300 13200 4
N 18300 12800 17600 12800 4
N 17600 12800 17600 10100 4
C 16000 11900 1 90 0 resistor-2.sym
{
T 15700 12100 5 10 1 1 90 0 1
refdes=R253
T 16200 12100 5 10 1 1 90 0 1
value=2200
T 16000 11900 5 10 0 1 0 0 1
device=RESISTOR
T 16000 11900 5 10 0 1 0 0 1
footprint=RES1016
}
N 15900 11900 15900 11500 4
N 15900 10600 15900 10100 4
N 19300 13000 20100 13000 4
C 20100 12900 1 0 0 resistor-2.sym
{
T 20300 13200 5 10 1 1 0 0 1
refdes=R257
T 20300 12700 5 10 1 1 0 0 1
value=10k
T 20100 12900 5 10 0 1 0 0 1
device=RESISTOR
T 20100 12900 5 10 0 1 0 0 1
footprint=RES1016
}
N 21000 13000 21400 13000 4
{
T 22300 13000 5 10 1 1 0 1 1
netname=OUTPUT
}
C 100 100 0 0 0 A1-sheet.sym
{
T 30200 500 5 10 1 1 0 0 1
revision=20130310
T 30200 200 5 10 1 1 0 0 1
author=Bert Timmerman
T 26300 200 5 10 1 1 0 0 1
page=01
T 26300 500 5 10 1 1 0 0 1
file=26.006.00.01.53.sch
T 27800 200 5 10 1 1 0 0 1
pages=01
T 26300 800 5 10 1 1 0 0 1
device=OCTAVE_FILTER
T 26300 1000 5 10 1 1 0 0 1
comment=schematic
T 26300 1200 5 10 1 1 0 0 1
description=Octave Filter 63 Hz module BPF (for simulation)
}
C 21400 12900 1 0 0 output.sym
{
T 21500 13200 5 10 0 0 0 0 1
symversion=20090227
}
C 11800 11100 1 0 0 vac-1.sym
{
T 12500 11750 5 10 1 1 0 0 1
refdes=V5
T 12500 11950 5 10 0 0 0 0 1
device=vac
T 12500 12150 5 10 0 0 0 0 1
footprint=none
T 12500 11550 5 10 1 1 0 0 1
value=dc 0 ac 1
}
N 12100 12300 12100 13000 4
N 12100 11100 12100 10100 4
C 10000 10400 1 0 0 vdc-1.sym
{
T 10700 11050 5 10 1 1 0 0 1
refdes=V1
T 10700 11250 5 10 0 0 0 0 1
device=VOLTAGE_SOURCE
T 10700 11450 5 10 0 0 0 0 1
footprint=none
T 10700 10850 5 10 1 1 0 0 1
value=DC 15V
}
C 10000 8600 1 0 0 vdc-1.sym
{
T 10700 9250 5 10 1 1 0 0 1
refdes=V2
T 10700 9450 5 10 0 0 0 0 1
device=VOLTAGE_SOURCE
T 10700 9650 5 10 0 0 0 0 1
footprint=none
T 10700 9050 5 10 1 1 0 0 1
value=DC 15V
}
N 10300 10400 10300 9800 4
N 10300 8600 10300 8300 4
N 10300 8300 18800 8300 4
N 18800 12600 18800 8300 4
C 10700 9800 1 0 0 gnd-1.sym
N 10300 11600 10300 16600 4
N 18800 16600 18800 13400 4
N 10300 16600 18800 16600 4
C 16000 10600 1 90 0 resistor-2.sym
{
T 15700 10800 5 10 1 1 90 0 1
refdes=R254
T 16200 10800 5 10 1 1 90 0 1
value=5k
T 16000 10600 5 10 0 1 0 0 1
device=RESISTOR
T 16000 10600 5 10 0 1 0 0 1
footprint=RES1016
}
N 15600 13000 15900 13000 4
L 19900 13700 19700 13000 3 0 0 0 -1 -1
B 19900 13700 600 300 3 0 0 0 -1 -1 0 -1 -1 -1 -1 -1
C 18300 12600 1 0 0 CA3140_pp.sym
{
T 19500 12800 5 10 0 0 0 0 1
device=OPAMP
T 19000 12700 5 10 1 1 0 0 1
refdes=X251
T 19500 13400 5 10 0 0 0 0 1
symversion=20110522
T 19000 12500 5 10 1 1 0 0 1
value=CA3140
}
