v 20110115 2
C 8600 9700 1 0 0 resistor-2.sym
{
T 8800 10000 5 10 1 1 0 0 1
refdes=R102
T 8800 9500 5 10 1 1 0 0 1
value=10k
T 8600 9700 5 10 0 1 0 0 1
footprint=RES1270-635X229____0.6W.fp
T 8600 9700 5 10 0 0 0 0 1
device=RESISTOR
T 8600 9700 5 10 0 1 0 0 1
vendor=Conrad
T 8600 9700 5 10 0 1 0 0 1
price=0.11
T 8600 9700 5 10 0 1 0 0 1
vendor_PN=403377
T 8600 9700 5 10 0 1 0 0 1
mfg=Beyschlag
T 8600 9700 5 10 0 1 0 0 1
mfg_PN=MBB 0207-50 10k
}
N 8600 9800 8300 9800 4
N 9500 9800 10000 9800 4
C 3800 11200 1 0 1 DB31-1.sym
{
T 2200 21400 5 10 1 1 0 0 1
refdes=J101
T 3800 11200 5 10 0 1 0 0 1
device=CONNECTOR
T 3800 11200 5 10 0 1 0 0 1
footprint=CON-DIN41617-31N_Assmann_A-31-S1_DIN41617_male.fp
T 2200 21200 5 10 1 1 0 0 1
value=DIN41617 31p
T 3800 11200 5 10 0 1 0 0 1
vendor=Conrad
T 3800 11200 5 10 0 1 0 0 1
mfg=Assmann
T 3800 11200 5 10 0 1 0 0 1
mfg_PN=A-31-S1
T 3800 11200 5 10 0 1 0 0 1
price=3.02
T 3800 11200 5 10 0 1 0 0 1
vendor_PN=740560
}
N 3700 11700 5400 11700 4
{
T 1300 11700 5 10 1 1 0 0 1
netname=BUS_31
}
N 3700 12300 4000 12300 4
{
T 1300 12300 5 10 1 1 0 0 1
netname=BUS_29
}
N 4000 12300 4000 21200 4
N 4000 21200 29800 21200 4
{
T 30700 21200 5 10 1 1 0 0 1
netname=POS15V
}
N 29800 20800 5400 20800 4
{
T 30700 20800 5 10 1 1 0 0 1
netname=NEG15V
}
N 5400 20800 5400 11700 4
C 6400 14400 1 90 1 capacitor-2.sym
{
T 5900 13800 5 10 1 1 90 0 1
refdes=C114
T 5500 14200 5 10 0 1 270 2 1
symversion=0.1
T 6600 13500 5 10 1 1 90 0 1
value=10uF/35V
T 6400 14400 5 10 0 1 0 0 1
device=CAPACITOR
T 6400 14400 5 10 0 1 0 0 1
footprint=CAPPR200-500X1100____.fp
T 6400 14400 5 10 0 1 0 0 1
vendor=Conrad
T 6400 14400 5 10 0 1 0 0 1
mfg=CDE
T 6400 14400 5 10 0 1 0 0 1
price=0.18
T 6400 14400 5 10 0 1 0 0 1
vendor_PN=472484
}
C 5000 13500 1 90 0 capacitor-2.sym
{
T 4500 13800 5 10 1 1 90 0 1
refdes=C113
T 4100 13700 5 10 0 1 90 0 1
symversion=0.1
T 5200 13700 5 10 1 1 90 0 1
value=10uF/35V
T 5000 13500 5 10 0 0 0 0 1
device=CAPACITOR
T 5000 13500 5 10 0 1 0 0 1
footprint=CAPPR200-500X1100____.fp
T 5000 13500 5 10 0 1 0 0 1
vendor=Conrad
T 5000 13500 5 10 0 1 0 0 1
mfg=CDE
T 5000 13500 5 10 0 1 0 0 1
price=0.18
T 5000 13500 5 10 0 1 0 0 1
vendor_PN=472484
}
N 4800 14400 4800 21200 4
N 4800 13500 4800 12000 4
N 6200 14400 6200 20800 4
N 6200 13500 6200 12000 4
C 9900 7200 1 90 0 resistor-2.sym
{
T 9600 7400 5 10 1 1 90 0 1
refdes=R104
T 10100 7400 5 10 1 1 90 0 1
value=4k7
T 9900 7200 5 10 0 1 0 0 1
footprint=RES1270-635X229____0.6W.fp
T 9900 7200 5 10 0 1 0 0 1
device=RESISTOR
T 9900 7200 5 10 0 1 0 0 1
vendor=Conrad
T 9900 7200 5 10 0 1 0 0 1
price=0.11
T 9900 7200 5 10 0 1 0 0 1
vendor_PN=403334
T 9900 7200 5 10 0 1 0 0 1
mfg=Beyschlag
T 9900 7200 5 10 0 1 0 0 1
mfg_PN=MBB 0207-50 4k7
}
N 9800 7200 9800 7000 4
C 11300 8500 1 90 0 resistor-2.sym
{
T 11000 8700 5 10 1 1 90 0 1
refdes=R103
T 11500 8700 5 10 1 1 90 0 1
value=47k
T 11300 8500 5 10 0 1 0 0 1
footprint=RES1270-635X229____0.6W.fp
T 11300 8500 5 10 0 1 0 0 1
device=RESISTOR
T 11300 8500 5 10 0 1 0 0 1
vendor=Conrad
T 11300 8500 5 10 0 1 0 0 1
price=0.11
T 11300 8500 5 10 0 1 0 0 1
vendor_PN=403458
T 11300 8500 5 10 0 1 0 0 1
mfg=Beyschlag
T 11300 8500 5 10 0 1 0 0 1
mfg_PN=MBB 0207-50 47k
}
N 9800 8100 9800 9400 4
N 9800 9400 10000 9400 4
N 11000 9600 16800 9600 4
N 11200 9400 11200 9600 4
N 11200 8500 11200 8300 4
N 11200 8300 9800 8300 4
N 3700 12000 6200 12000 4
{
T 1300 12000 5 10 1 1 0 0 1
netname=BUS_30
}
N 10200 5200 10200 5000 4
N 10200 5700 10200 5900 4
N 15500 19000 16300 19000 4
N 16300 19000 16300 18800 4
N 15500 19000 15500 18800 4
N 15500 6900 15500 17900 4
N 16300 7000 16300 17900 4
N 15500 16100 21100 16100 4
C 21300 16700 1 0 0 capacitor-1.sym
{
T 21600 17200 5 10 1 1 0 0 1
refdes=C102
T 21500 17600 5 10 0 1 0 0 1
symversion=0.1
T 21600 16500 5 10 1 1 0 0 1
value=100nF
T 21300 16700 5 10 0 0 0 0 1
device=CAPACITOR
T 21300 16700 5 10 0 1 0 0 1
footprint=CAPR250-450X850____.fp
T 21300 16700 5 10 0 1 0 0 1
vendor=Conrad
T 21300 16700 5 10 0 1 0 0 1
mfg=Weltron
T 21300 16700 5 10 0 1 0 0 1
price=0.27
T 21300 16700 5 10 0 1 0 0 1
vendor_PN=453099
}
C 22400 16700 1 0 0 capacitor-1.sym
{
T 22700 17200 5 10 1 1 0 0 1
refdes=C103
T 22600 17600 5 10 0 1 0 0 1
symversion=0.1
T 22700 16500 5 10 1 1 0 0 1
value=100nF
T 22400 16700 5 10 0 0 0 0 1
device=CAPACITOR
T 22400 16700 5 10 0 1 0 0 1
footprint=CAPR250-450X850____.fp
T 22400 16700 5 10 0 1 0 0 1
vendor=Conrad
T 22400 16700 5 10 0 1 0 0 1
mfg=Weltron
T 22400 16700 5 10 0 1 0 0 1
price=0.27
T 22400 16700 5 10 0 1 0 0 1
vendor_PN=453099
}
C 21300 14400 1 0 0 capacitor-1.sym
{
T 21600 14900 5 10 1 1 0 0 1
refdes=C104
T 21500 15300 5 10 0 1 0 0 1
symversion=0.1
T 21600 14200 5 10 1 1 0 0 1
value=100nF
T 21300 14400 5 10 0 0 0 0 1
device=CAPACITOR
T 21300 14400 5 10 0 1 0 0 1
footprint=CAPR250-450X850____.fp
T 21300 14400 5 10 0 1 0 0 1
vendor=Conrad
T 21300 14400 5 10 0 1 0 0 1
mfg=Weltron
T 21300 14400 5 10 0 1 0 0 1
price=0.27
T 21300 14400 5 10 0 1 0 0 1
vendor_PN=453099
}
C 22400 14400 1 0 0 capacitor-1.sym
{
T 22700 14900 5 10 1 1 0 0 1
refdes=C105
T 22600 15300 5 10 0 1 0 0 1
symversion=0.1
T 22700 14200 5 10 1 1 0 0 1
value=100nF
T 22400 14400 5 10 0 0 0 0 1
device=CAPACITOR
T 22400 14400 5 10 0 1 0 0 1
footprint=CAPR250-450X850____.fp
T 22400 14400 5 10 0 1 0 0 1
vendor=Conrad
T 22400 14400 5 10 0 1 0 0 1
mfg=Weltron
T 22400 14400 5 10 0 1 0 0 1
price=0.27
T 22400 14400 5 10 0 1 0 0 1
vendor_PN=453099
}
N 22200 16900 22400 16900 4
N 22200 14600 22400 14600 4
N 23300 16900 23500 16900 4
N 21300 14600 21100 14600 4
N 23300 14600 23500 14600 4
C 21300 12100 1 0 0 capacitor-1.sym
{
T 21600 12600 5 10 1 1 0 0 1
refdes=C106
T 21500 13000 5 10 0 1 0 0 1
symversion=0.1
T 21600 11900 5 10 1 1 0 0 1
value=100nF
T 21300 12100 5 10 0 0 0 0 1
device=CAPACITOR
T 21300 12100 5 10 0 1 0 0 1
footprint=CAPR250-450X850____.fp
T 21300 12100 5 10 0 1 0 0 1
vendor=Conrad
T 21300 12100 5 10 0 1 0 0 1
mfg=Weltron
T 21300 12100 5 10 0 1 0 0 1
price=0.27
T 21300 12100 5 10 0 1 0 0 1
vendor_PN=453099
}
C 22400 12100 1 0 0 capacitor-1.sym
{
T 22700 12600 5 10 1 1 0 0 1
refdes=C107
T 22600 13000 5 10 0 1 0 0 1
symversion=0.1
T 22700 11900 5 10 1 1 0 0 1
value=100nF
T 22400 12100 5 10 0 0 0 0 1
device=CAPACITOR
T 22400 12100 5 10 0 1 0 0 1
footprint=CAPR250-450X850____.fp
T 22400 12100 5 10 0 1 0 0 1
vendor=Conrad
T 22400 12100 5 10 0 1 0 0 1
mfg=Weltron
T 22400 12100 5 10 0 1 0 0 1
price=0.27
T 22400 12100 5 10 0 1 0 0 1
vendor_PN=453099
}
N 22200 12300 22400 12300 4
N 21300 12300 21100 12300 4
N 23300 12300 23500 12300 4
C 21300 9800 1 0 0 capacitor-1.sym
{
T 21600 10300 5 10 1 1 0 0 1
refdes=C108
T 21500 10700 5 10 0 1 0 0 1
symversion=0.1
T 21600 9600 5 10 1 1 0 0 1
value=100nF
T 21300 9800 5 10 0 0 0 0 1
device=CAPACITOR
T 21300 9800 5 10 0 1 0 0 1
footprint=CAPR250-450X850____.fp
T 21300 9800 5 10 0 1 0 0 1
vendor=Conrad
T 21300 9800 5 10 0 1 0 0 1
mfg=Weltron
T 21300 9800 5 10 0 1 0 0 1
price=0.27
T 21300 9800 5 10 0 1 0 0 1
vendor_PN=453099
}
C 22400 9800 1 0 0 capacitor-1.sym
{
T 22700 10300 5 10 1 1 0 0 1
refdes=C109
T 22600 10700 5 10 0 1 0 0 1
symversion=0.1
T 22700 9600 5 10 1 1 0 0 1
value=100nF
T 22400 9800 5 10 0 0 0 0 1
device=CAPACITOR
T 22400 9800 5 10 0 1 0 0 1
footprint=CAPR250-450X850____.fp
T 22400 9800 5 10 0 1 0 0 1
vendor=Conrad
T 22400 9800 5 10 0 1 0 0 1
mfg=Weltron
T 22400 9800 5 10 0 1 0 0 1
price=0.27
T 22400 9800 5 10 0 1 0 0 1
vendor_PN=453099
}
N 22200 10000 22400 10000 4
N 21300 10000 21100 10000 4
N 23300 10000 23500 10000 4
C 21300 7500 1 0 0 capacitor-1.sym
{
T 21600 8000 5 10 1 1 0 0 1
refdes=C110
T 21500 8400 5 10 0 1 0 0 1
symversion=0.1
T 21600 7300 5 10 1 1 0 0 1
value=100nF
T 21300 7500 5 10 0 0 0 0 1
device=CAPACITOR
T 21300 7500 5 10 0 1 0 0 1
footprint=CAPR250-450X850____.fp
T 21300 7500 5 10 0 1 0 0 1
vendor=Conrad
T 21300 7500 5 10 0 1 0 0 1
mfg=Weltron
T 21300 7500 5 10 0 1 0 0 1
price=0.27
T 21300 7500 5 10 0 1 0 0 1
vendor_PN=453099
}
C 22400 7500 1 0 0 capacitor-1.sym
{
T 22700 8000 5 10 1 1 0 0 1
refdes=C111
T 22600 8400 5 10 0 1 0 0 1
symversion=0.1
T 22700 7300 5 10 1 1 0 0 1
value=100nF
T 22400 7500 5 10 0 0 0 0 1
device=CAPACITOR
T 22400 7500 5 10 0 1 0 0 1
footprint=CAPR250-450X850____.fp
T 22400 7500 5 10 0 1 0 0 1
vendor=Conrad
T 22400 7500 5 10 0 1 0 0 1
mfg=Weltron
T 22400 7500 5 10 0 1 0 0 1
price=0.27
T 22400 7500 5 10 0 1 0 0 1
vendor_PN=453099
}
N 22200 7700 22400 7700 4
N 21300 7700 21100 7700 4
N 23300 7700 23500 7700 4
N 20700 16000 16800 16000 4
N 16800 16000 16800 6800 4
N 21100 16900 21300 16900 4
N 15900 19200 15900 19000 4
N 24600 11200 29800 11200 4
{
T 30700 11200 5 10 1 1 0 0 1
netname=OUT05
}
N 29800 10400 24800 10400 4
{
T 30700 10400 5 10 1 1 0 0 1
netname=OUT07
}
N 24800 10400 24800 9300 4
N 24800 9300 23500 9300 4
N 29800 10000 25000 10000 4
{
T 30700 10000 5 10 1 1 0 0 1
netname=OUT08
}
N 25000 10000 25000 9200 4
N 25000 9200 23100 9200 4
N 29800 9600 25200 9600 4
{
T 30700 9600 5 10 1 1 0 0 1
netname=OUT09
}
N 25200 9600 25200 7000 4
N 25200 7000 23500 7000 4
N 25400 9200 29800 9200 4
{
T 30700 9200 5 10 1 1 0 0 1
netname=OUT10
}
N 25400 9200 25400 6900 4
N 25400 6900 23100 6900 4
N 23100 13800 24800 13800 4
N 24800 13800 24800 11600 4
N 24800 11600 29800 11600 4
{
T 30700 11600 5 10 1 1 0 0 1
netname=OUT04
}
N 25000 13900 25000 12000 4
N 25000 12000 29800 12000 4
{
T 30700 12000 5 10 1 1 0 0 1
netname=OUT03
}
N 23100 16100 25200 16100 4
N 25200 16100 25200 12400 4
N 25200 12400 29800 12400 4
{
T 30700 12400 5 10 1 1 0 0 1
netname=OUT02
}
N 23500 16200 25400 16200 4
N 25400 12800 25400 16200 4
N 25400 12800 29800 12800 4
{
T 30700 12800 5 10 1 1 0 0 1
netname=OUT01
}
C 26900 13300 1 0 0 gnd-1.sym
N 26600 13600 27400 13600 4
C 26400 14700 1 270 0 diode-1.sym
{
T 27000 14300 5 10 0 0 270 0 1
device=DIODE
T 26300 14000 5 10 1 1 90 0 1
refdes=D103
T 27000 13900 5 10 1 1 90 0 1
value=1N4148
T 26400 14700 5 10 0 1 0 0 1
footprint=DIO1016-425X185_Diotec_1N4148_DO35_C1A2
T 26400 14700 5 10 0 1 0 0 1
mfg=Philips
T 26400 14700 5 10 0 1 0 0 1
vendor=Conrad
T 26400 14700 5 10 0 1 0 0 1
price=0.05
T 26400 14700 5 10 0 1 0 0 1
vendor_PN=162280
}
N 26600 13800 26600 13600 4
N 26600 14700 26600 14900 4
C 26400 15800 1 270 0 diode-1.sym
{
T 27000 15400 5 10 0 0 270 0 1
device=DIODE
T 26300 15100 5 10 1 1 90 0 1
refdes=D102
T 27000 15000 5 10 1 1 90 0 1
value=1N4148
T 26400 15800 5 10 0 1 0 0 1
footprint=DIO1016-425X185_Diotec_1N4148_DO35_C1A2
T 26400 15800 5 10 0 1 0 0 1
mfg=Philips
T 26400 15800 5 10 0 1 0 0 1
vendor=Conrad
T 26400 15800 5 10 0 1 0 0 1
price=0.05
T 26400 15800 5 10 0 1 0 0 1
vendor_PN=162280
}
C 27100 16000 1 90 0 resistor-2.sym
{
T 26750 16400 5 10 0 0 90 0 1
device=RESISTOR
T 26800 16200 5 10 1 1 90 0 1
refdes=R109
T 27300 16200 5 10 1 1 90 0 1
value=1k
T 27100 16000 5 10 0 1 0 0 1
footprint=RES1270-635X229____0.6W.fp
T 27100 16000 5 10 0 1 0 0 1
vendor=Conrad
T 27100 16000 5 10 0 0 0 0 1
price=0.11
T 27100 16000 5 10 0 1 0 0 1
vendor_PN=405256
T 27100 16000 5 10 0 1 0 0 1
mfg=Beyschlag
T 27100 16000 5 10 0 1 0 0 1
mfg_PN=MBB 0207-50 1k
}
N 27000 16900 27000 17000 4
N 26600 15800 26600 16000 4
N 26600 16000 27400 16000 4
N 27400 16000 27400 15300 4
N 27400 14400 27400 13600 4
C 27300 15300 1 270 0 resistor-variable-2.sym
{
T 27200 14750 5 10 1 1 90 0 1
refdes=R110
T 27700 14900 5 10 1 1 90 0 1
value=10k
T 27300 15300 5 10 0 1 0 0 1
device=ADJUSTABLE_RESISTOR
T 27300 15300 5 10 0 1 0 0 1
footprint=TRIM_Piher_PT-15LH01__.fp
T 27300 15300 5 10 0 1 0 0 1
mfg=Piher
T 27300 15300 5 10 0 1 0 0 1
mfg_PN=PT-15LH01
T 27300 15300 5 10 0 1 0 0 1
vendor=Conrad
T 27300 15300 5 10 0 1 0 0 1
price=0.53
T 27300 15300 5 10 0 1 0 0 1
vendor_PN=431230
}
C 22400 17200 1 180 0 gnd-1.sym
N 21100 16300 21100 16900 4
C 22400 17200 1 180 0 gnd-1.sym
C 22400 14900 1 180 0 gnd-1.sym
N 21100 14000 21100 14600 4
C 22400 12600 1 180 0 gnd-1.sym
N 22300 10000 22300 9100 4
N 23500 9400 23500 10000 4
C 22400 10300 1 180 0 gnd-1.sym
N 21100 7100 21100 7700 4
N 22300 7700 22300 6800 4
N 23500 7100 23500 7700 4
C 22400 8000 1 180 0 gnd-1.sym
N 21500 16200 16300 16200 4
C 200 200 0 0 0 A1-sheet.sym
{
T 26400 300 5 10 1 1 0 0 1
page=01
T 27900 300 5 10 1 1 0 0 1
pages=01
T 26400 600 5 10 1 1 0 0 1
file=26.003.00.01.01.sch
T 30300 600 5 10 1 1 0 0 1
revision=20130310
T 30300 300 5 10 1 1 0 0 1
author=Bert Timmerman
T 26400 900 5 10 1 1 0 0 1
device=OCTAVE_FILTER
T 26400 1100 5 10 1 1 0 0 1
comment=schematic
T 26400 1300 5 10 1 1 0 0 1
description=Octave Filter main pcb (DFM)
}
N 27900 14800 29800 14800 4
{
T 30700 14800 5 10 1 1 0 0 1
netname=VREF
}
C 10100 5100 1 0 0 CA3140_pwr.sym
{
T 10175 5625 5 6 1 1 0 6 1
refdes=U101
T 10100 5100 5 10 0 0 0 0 1
device=OPAMP
T 10100 5100 5 10 0 1 0 0 1
footprint=DIPS08300____.fp
T 10400 5400 5 10 1 1 0 0 1
value=CA3140E
T 10100 5100 5 10 0 1 0 0 1
mfg=Harris
T 10100 5100 5 10 0 1 0 0 1
mfg_PN=CA3140E
T 10100 5100 5 10 0 1 0 0 1
price=0.92
T 10100 5100 5 10 0 1 0 0 1
vendor=Conrad
T 10100 5100 5 10 0 1 0 0 1
vendor_PN=174785
}
C 13500 18900 1 90 0 resistor-2.sym
{
T 13200 19100 5 10 1 1 90 0 1
refdes=R108
T 13700 19100 5 10 1 1 90 0 1
value=1k
T 13500 18900 5 10 0 1 0 0 1
footprint=RES1270-635X229____0.6W.fp
T 13500 18900 5 10 0 1 0 0 1
device=RESISTOR
T 13500 18900 5 10 0 1 0 0 1
vendor=Conrad
T 13500 18900 5 10 0 1 0 0 1
price=0.11
T 13500 18900 5 10 0 1 0 0 1
vendor_PN=405256
T 13500 18900 5 10 0 1 0 0 1
mfg=Beyschlag
T 13500 18900 5 10 0 1 0 0 1
mfg_PN=MBB 0207-50 1k
}
N 13400 18500 13400 18900 4
N 12400 18500 12400 18900 4
C 12600 19800 1 90 1 capacitor-2.sym
{
T 12100 19200 5 10 1 1 90 0 1
refdes=C112
T 11700 19600 5 10 0 1 270 2 1
symversion=0.1
T 12800 18900 5 10 1 1 90 0 1
value=100uF/63V
T 12600 19800 5 10 0 1 0 0 1
device=CAPACITOR
T 12600 19800 5 10 0 1 0 0 1
footprint=CAPPR500-1000X1300____.fp
T 12600 19800 5 10 0 1 0 0 1
vendor=Conrad
T 12600 19800 5 10 0 1 0 0 1
mfg=CDE
T 12600 19800 5 10 0 1 0 0 1
price=0.30
T 12600 19800 5 10 0 1 0 0 1
vendor_PN=472638
}
C 11400 18900 1 90 0 diode-1.sym
{
T 10800 19300 5 10 0 0 90 0 1
device=DIODE
T 10900 19200 5 10 1 1 90 0 1
refdes=D101
T 11600 19200 5 10 1 1 90 0 1
value=1N4004
T 11400 18900 5 10 0 1 0 0 1
footprint=DIO1016-520X270_Diodes_1N4004_DO41_C1A2.fp
T 11400 18900 5 10 0 1 0 0 1
vendor=Conrad
T 11400 18900 5 10 0 1 0 0 1
price=0.08
T 11400 18900 5 10 0 1 0 0 1
vendor_PN=162248
T 11400 18900 5 10 0 1 0 0 1
mfg=Diotec
}
N 11200 18900 11200 18700 4
N 11200 18700 12400 18700 4
N 12400 19800 12400 20000 4
N 11200 19800 11200 20000 4
N 11200 20000 29800 20000 4
{
T 30700 20000 5 10 1 1 0 0 1
netname=S102COM
}
N 13400 19800 13400 20000 4
C 12300 18200 1 0 0 gnd-1.sym
N 29600 18800 29800 18800 4
C 29300 19300 1 270 0 gnd-1.sym
N 29600 19200 29800 19200 4
N 29600 19600 29800 19600 4
C 29700 8700 1 0 0 CON-SIL-254P-31.sym
{
T 30500 21700 5 10 1 1 0 6 1
refdes=J102
T 31000 9950 5 10 0 0 0 0 1
device=CONNECTOR
T 31000 9550 5 10 0 0 0 0 1
footprint=CON-SIL-254P-31N____.fp
T 29700 8700 5 10 0 1 0 0 1
mfg=Fisher
T 29700 8700 5 10 0 1 0 0 1
mfg_PN=PFH 173638000
T 29700 8700 5 10 0 1 0 0 1
price=4.13
T 29700 8700 5 10 0 1 0 0 1
vendor=Conrad
T 29700 8700 5 10 0 1 0 0 1
vendor_PN=735000
}
C 6100 11700 1 0 0 gnd-1.sym
N 8300 9800 8300 20400 4
N 8300 20400 29800 20400 4
{
T 30700 20400 5 10 1 1 0 0 1
netname=INPUT
}
C 9700 6700 1 0 0 gnd-1.sym
N 29800 18000 18300 18000 4
{
T 30700 18000 5 10 1 1 0 0 1
netname=RESET
}
N 18300 18000 18300 17300 4
N 18300 17300 15500 17300 4
N 29800 18400 18000 18400 4
{
T 30700 18400 5 10 1 1 0 0 1
netname=FOLLOW
}
N 18000 18400 18000 17600 4
N 18000 17600 16300 17600 4
N 22300 16000 22300 16900 4
N 22700 16000 22700 16300 4
N 22700 16300 23500 16300 4
N 23500 16300 23500 16900 4
N 23500 16200 23500 16000 4
N 23100 16100 23100 16000 4
N 23500 13700 23500 13900 4
N 23500 13900 25000 13900 4
N 23100 13800 23100 13700 4
N 15500 13800 21100 13800 4
N 20700 13700 16800 13700 4
N 21100 13800 21100 13700 4
N 21500 13900 21500 13700 4
N 21500 13900 16300 13900 4
N 22300 13700 22300 14600 4
N 15500 11500 21100 11500 4
N 20700 11400 16800 11400 4
N 21100 11500 21100 11400 4
N 21500 11600 21500 11400 4
N 21500 11600 16300 11600 4
N 22300 11400 22300 12300 4
N 23500 11700 23500 12300 4
N 24600 11200 24600 11600 4
N 24600 11600 23500 11600 4
N 23500 11600 23500 11400 4
N 24400 10800 29800 10800 4
{
T 30700 10800 5 10 1 1 0 0 1
netname=OUT06
}
N 24400 10800 24400 11500 4
N 24400 11500 23100 11500 4
N 23100 11500 23100 11400 4
N 23500 9300 23500 9100 4
N 23100 9200 23100 9100 4
N 15500 9200 21100 9200 4
N 20700 9100 16800 9100 4
N 21500 9300 21500 9100 4
N 21500 9300 16300 9300 4
N 21100 9200 21100 9100 4
N 23500 7000 23500 6800 4
N 23100 6900 23100 6800 4
N 15500 6900 21100 6900 4
N 20700 6800 16800 6800 4
N 21500 7000 16300 7000 4
N 21500 7000 21500 6800 4
N 21100 6900 21100 6800 4
B 25700 1800 7300 3200 3 0 0 0 -1 -1 0 -1 -1 -1 -1 -1
C 28900 4400 1 0 0 MTG_hole.sym
{
T 29700 4500 5 10 1 1 0 0 1
refdes=A
T 29210 5050 5 10 0 0 0 0 1
device=MTG
T 29200 5500 5 10 0 0 0 0 1
footprint=MTG370____.fp
}
C 25700 4400 1 0 0 MTG_hole.sym
{
T 26010 5050 5 10 0 0 0 0 1
device=MTG
T 26500 4500 5 10 1 1 0 0 1
refdes=B
T 26000 5500 5 10 0 0 0 0 1
footprint=MTG370____.fp
}
C 25700 2000 1 0 0 MTG_hole.sym
{
T 26010 2650 5 10 0 0 0 0 1
device=MTG
T 26500 2100 5 10 1 1 0 0 1
refdes=C
T 26000 3100 5 10 0 0 0 0 1
footprint=MTG370____.fp
}
C 28900 2000 1 0 0 MTG_connect.sym
{
T 29700 2100 5 10 1 1 0 0 1
refdes=GND
T 29210 2650 5 10 0 0 0 0 1
device=MTG
T 29200 3100 5 10 0 0 0 0 1
footprint=MTG370-700____.fp
}
C 29000 1900 1 0 0 gnd-1.sym
N 29200 2200 29100 2200 4
C 27300 4400 1 0 0 PIN.sym
{
T 27610 5050 5 10 0 0 0 0 1
device=PIN
T 27600 5300 5 10 0 0 0 0 1
footprint=PIN165X102____.fp
T 27700 4800 5 10 1 1 0 0 1
refdes=p2
T 27600 5100 5 10 0 0 0 0 1
symversion=20090220
}
C 27400 4400 1 0 1 PIN.sym
{
T 27090 5050 5 10 0 0 0 6 1
device=PIN
T 27100 5300 5 10 0 0 0 6 1
footprint=PIN165X102____.fp
T 26800 4800 5 10 1 1 0 0 1
refdes=p1
T 27700 5100 5 10 0 0 0 0 1
symversion=20090220
}
N 27000 4600 27700 4600 4
C 27300 2000 1 0 0 PIN.sym
{
T 27610 2650 5 10 0 0 0 0 1
device=PIN
T 27600 2900 5 10 0 0 0 0 1
footprint=PIN165X102____.fp
T 27700 1900 5 10 1 1 0 0 1
refdes=p4
T 27600 2700 5 10 0 0 0 0 1
symversion=20090220
}
C 27400 2000 1 0 1 PIN.sym
{
T 27090 2650 5 10 0 0 0 6 1
device=PIN
T 27100 2900 5 10 0 0 0 6 1
footprint=PIN165X102____.fp
T 26800 1900 5 10 1 1 0 0 1
refdes=p3
T 27700 2700 5 10 0 0 0 0 1
symversion=20090220
}
N 27000 2200 27700 2200 4
C 27100 4300 1 0 0 gnd-1.sym
C 27100 1900 1 0 0 gnd-1.sym
T 25700 5100 9 10 1 0 0 0 1
Mounting holes:
C 10000 9200 1 0 0 CA3140_np.sym
{
T 10200 10100 5 8 1 1 0 0 1
value=CA3140E
T 10200 10800 5 10 0 0 0 0 1
device=OPAMP
T 10200 10300 5 10 1 1 0 0 1
refdes=U101
T 10000 9200 5 10 0 1 0 0 1
footprint=DIPS08300____.fp
T 10000 9200 5 10 0 1 0 0 1
mfg=Harris
T 10000 9200 5 10 0 1 0 0 1
mfg_PN=CA3140E
T 10000 9200 5 10 0 1 0 0 1
price=0.92
T 10000 9200 5 10 0 1 0 0 1
vendor=Conrad
T 10000 9200 5 10 0 1 0 0 1
vendor_PN=174785
T 11700 10300 5 10 0 0 0 0 1
symversion=20110522
}
C 20300 16000 1 270 0 CON-SIL-254P-8.sym
{
T 24300 15800 5 10 0 0 90 8 1
footprint=CON-SIL-254P-8N____.fp
T 24100 15800 5 10 0 0 90 8 1
device=CONNECTOR
T 23800 15300 5 10 1 1 180 8 1
refdes=A101
T 20300 16000 5 10 0 1 0 0 1
vendor=Conrad
T 20300 16000 5 10 0 1 0 0 1
mfg=Fisher
T 20300 16000 5 10 0 1 0 0 1
mfg_PN=PFH 172038000
T 20300 16000 5 10 0 1 0 0 1
price=2.63
T 20300 16000 5 10 0 1 0 0 1
vendor_PN=734993
T 20500 19800 5 10 0 0 0 0 1
symversion=20090502
}
N 21900 16000 21900 16300 4
N 21900 16300 21100 16300 4
N 21100 16100 21100 16000 4
N 21500 16200 21500 16000 4
C 16400 17900 1 90 0 resistor-2.sym
{
T 16100 18100 5 10 1 1 90 0 1
refdes=R106
T 16600 18100 5 10 1 1 90 0 1
value=1M
T 16400 17900 5 10 0 1 0 0 1
footprint=RES1270-635X229____0.6W.fp
T 16400 17900 5 10 0 1 0 0 1
device=RESISTOR
T 16400 17900 5 10 0 1 0 0 1
vendor=Conrad
T 16400 17900 5 10 0 1 0 0 1
price=0.11
T 16400 17900 5 10 0 1 0 0 1
vendor_PN=403610
T 16400 17900 5 10 0 1 0 0 1
mfg=Beyschlag
T 16400 17900 5 10 0 1 0 0 1
mfg_PN=MBB 0207-50 1M
}
C 15600 17900 1 90 0 resistor-2.sym
{
T 15300 18100 5 10 1 1 90 0 1
refdes=R105
T 15800 18100 5 10 1 1 90 0 1
value=1M
T 15600 17900 5 10 0 1 0 0 1
footprint=RES1270-635X229____0.6W.fp
T 15600 17900 5 10 0 1 0 0 1
device=RESISTOR
T 15600 17900 5 10 0 1 0 0 1
vendor=Conrad
T 15600 17900 5 10 0 1 0 0 1
price=0.11
T 15600 17900 5 10 0 1 0 0 1
vendor_PN=403610
T 15600 17900 5 10 0 1 0 0 1
mfg=Beyschlag
T 15600 17900 5 10 0 1 0 0 1
mfg_PN=MBB 0207-50 1M
}
C 20300 13700 1 270 0 CON-SIL-254P-8.sym
{
T 24300 13500 5 10 0 0 90 8 1
footprint=CON-SIL-254P-8N____.fp
T 24100 13500 5 10 0 0 90 8 1
device=CONNECTOR
T 23800 13000 5 10 1 1 180 8 1
refdes=A102
T 20300 13700 5 10 0 1 0 0 1
vendor=Conrad
T 20300 13700 5 10 0 1 0 0 1
mfg=Fisher
T 20300 13700 5 10 0 1 0 0 1
mfg_PN=PFH 172038000
T 20300 13700 5 10 0 1 0 0 1
price=2.63
T 20300 13700 5 10 0 1 0 0 1
vendor_PN=734993
T 20500 17500 5 10 0 0 0 0 1
symversion=20090502
}
N 22700 13700 22700 14000 4
N 22700 14000 23500 14000 4
N 23500 14000 23500 14600 4
N 21100 14000 21900 14000 4
N 21900 14000 21900 13700 4
C 20300 11400 1 270 0 CON-SIL-254P-8.sym
{
T 24300 11200 5 10 0 0 90 8 1
footprint=CON-SIL-254P-8N____.fp
T 24100 11200 5 10 0 0 90 8 1
device=CONNECTOR
T 23800 10700 5 10 1 1 180 8 1
refdes=A103
T 20300 11400 5 10 0 1 0 0 1
vendor=Conrad
T 20300 11400 5 10 0 1 0 0 1
mfg=Fisher
T 20300 11400 5 10 0 1 0 0 1
mfg_PN=PFH 172038000
T 20300 11400 5 10 0 1 0 0 1
price=2.63
T 20300 11400 5 10 0 1 0 0 1
vendor_PN=734993
T 20500 15200 5 10 0 0 0 0 1
symversion=20090502
}
N 22700 11400 22700 11700 4
N 22700 11700 23500 11700 4
N 21100 11700 21100 12300 4
N 21100 11700 21900 11700 4
N 21900 11700 21900 11400 4
C 20300 9100 1 270 0 CON-SIL-254P-8.sym
{
T 24300 8900 5 10 0 0 90 8 1
footprint=CON-SIL-254P-8N____.fp
T 24100 8900 5 10 0 0 90 8 1
device=CONNECTOR
T 23800 8400 5 10 1 1 180 8 1
refdes=A104
T 20300 9100 5 10 0 1 0 0 1
vendor=Conrad
T 20300 9100 5 10 0 1 0 0 1
mfg=Fisher
T 20300 9100 5 10 0 1 0 0 1
mfg_PN=PFH 172038000
T 20300 9100 5 10 0 1 0 0 1
price=2.63
T 20300 9100 5 10 0 1 0 0 1
vendor_PN=734993
T 20500 12900 5 10 0 0 0 0 1
symversion=20090502
}
N 22700 9100 22700 9400 4
N 22700 9400 23500 9400 4
N 21900 9100 21900 9400 4
N 21900 9400 21100 9400 4
N 21100 9400 21100 10000 4
C 20300 6800 1 270 0 CON-SIL-254P-8.sym
{
T 24300 6600 5 10 0 0 90 8 1
footprint=CON-SIL-254P-8N____.fp
T 24100 6600 5 10 0 0 90 8 1
device=CONNECTOR
T 23800 6100 5 10 1 1 180 8 1
refdes=A105
T 20300 6800 5 10 0 1 0 0 1
vendor=Conrad
T 20300 6800 5 10 0 1 0 0 1
mfg=Fisher
T 20300 6800 5 10 0 1 0 0 1
mfg_PN=PFH 172038000
T 20300 6800 5 10 0 1 0 0 1
price=2.63
T 20300 6800 5 10 0 1 0 0 1
vendor_PN=734993
T 20500 10600 5 10 0 0 0 0 1
symversion=20090502
}
N 22700 6800 22700 7100 4
N 22700 7100 23500 7100 4
N 21100 7100 21900 7100 4
N 21900 7100 21900 6800 4
N 9400 4800 9400 4700 4
C 9300 4400 1 0 0 gnd-1.sym
C 9600 4800 1 90 0 capacitor-1.sym
{
T 9100 5100 5 10 1 1 90 0 1
refdes=C115
T 8700 5000 5 10 0 1 90 0 1
symversion=0.1
T 9800 5100 5 10 1 1 90 0 1
value=100nF
T 9600 4800 5 10 0 0 90 0 1
device=CAPACITOR
T 9600 4800 5 10 0 1 90 0 1
footprint=CAPR250-450X850____.fp
T 9600 4800 5 10 0 1 90 0 1
vendor=Conrad
T 9600 4800 5 10 0 1 90 0 1
mfg=Weltron
T 9600 4800 5 10 0 1 90 0 1
price=0.27
T 9600 4800 5 10 0 1 90 0 1
vendor_PN=453099
}
N 10200 5800 9400 5800 4
N 9400 5800 9400 5700 4
N 11000 4100 11000 4000 4
C 10900 3700 1 0 0 gnd-1.sym
C 11200 4100 1 90 0 capacitor-1.sym
{
T 10700 4400 5 10 1 1 90 0 1
refdes=C116
T 10300 4300 5 10 0 1 90 0 1
symversion=0.1
T 11400 4400 5 10 1 1 90 0 1
value=100nF
T 11200 4100 5 10 0 0 90 0 1
device=CAPACITOR
T 11200 4100 5 10 0 1 90 0 1
footprint=CAPR250-450X850____.fp
T 11200 4100 5 10 0 1 90 0 1
vendor=Conrad
T 11200 4100 5 10 0 1 90 0 1
mfg=Weltron
T 11200 4100 5 10 0 1 90 0 1
price=0.27
T 11200 4100 5 10 0 1 90 0 1
vendor_PN=453099
}
N 11000 5100 11000 5000 4
N 10200 5100 11000 5100 4
C 29600 18600 1 90 0 15V-minus.sym
C 29600 19400 1 90 0 15V-plus.sym
C 23300 16900 1 0 0 15V-minus.sym
C 20900 16900 1 0 0 15V-plus.sym
C 26800 17000 1 0 0 15V-plus.sym
C 20900 14600 1 0 0 15V-plus.sym
C 23300 14600 1 0 0 15V-minus.sym
C 20900 12300 1 0 0 15V-plus.sym
C 23300 12300 1 0 0 15V-minus.sym
C 20900 10000 1 0 0 15V-plus.sym
C 23300 10000 1 0 0 15V-minus.sym
C 20900 7700 1 0 0 15V-plus.sym
C 23300 7700 1 0 0 15V-minus.sym
C 13600 18500 1 180 0 15V-minus.sym
C 15700 19200 1 0 0 15V-plus.sym
C 10000 5900 1 0 0 15V-plus.sym
C 10400 5000 1 180 0 15V-minus.sym
C 29300 13100 1 0 0 nc-left-1.sym
{
T 29300 13500 5 10 0 0 0 0 1
value=NoConnection
T 29300 13900 5 10 0 0 0 0 1
device=DRC_Directive
}
C 29300 13500 1 0 0 nc-left-1.sym
{
T 29300 13900 5 10 0 0 0 0 1
value=NoConnection
T 29300 14300 5 10 0 0 0 0 1
device=DRC_Directive
}
C 29300 13900 1 0 0 nc-left-1.sym
{
T 29300 14300 5 10 0 0 0 0 1
value=NoConnection
T 29300 14700 5 10 0 0 0 0 1
device=DRC_Directive
}
C 29300 14300 1 0 0 nc-left-1.sym
{
T 29300 14700 5 10 0 0 0 0 1
value=NoConnection
T 29300 15100 5 10 0 0 0 0 1
device=DRC_Directive
}
C 29300 15100 1 0 0 nc-left-1.sym
{
T 29300 15500 5 10 0 0 0 0 1
value=NoConnection
T 29300 15900 5 10 0 0 0 0 1
device=DRC_Directive
}
C 29300 15500 1 0 0 nc-left-1.sym
{
T 29300 15900 5 10 0 0 0 0 1
value=NoConnection
T 29300 16300 5 10 0 0 0 0 1
device=DRC_Directive
}
C 29300 15900 1 0 0 nc-left-1.sym
{
T 29300 16300 5 10 0 0 0 0 1
value=NoConnection
T 29300 16700 5 10 0 0 0 0 1
device=DRC_Directive
}
C 29300 16300 1 0 0 nc-left-1.sym
{
T 29300 16700 5 10 0 0 0 0 1
value=NoConnection
T 29300 17100 5 10 0 0 0 0 1
device=DRC_Directive
}
C 29300 16700 1 0 0 nc-left-1.sym
{
T 29300 17100 5 10 0 0 0 0 1
value=NoConnection
T 29300 17500 5 10 0 0 0 0 1
device=DRC_Directive
}
C 29300 17100 1 0 0 nc-left-1.sym
{
T 29300 17500 5 10 0 0 0 0 1
value=NoConnection
T 29300 17900 5 10 0 0 0 0 1
device=DRC_Directive
}
C 29300 17500 1 0 0 nc-left-1.sym
{
T 29300 17900 5 10 0 0 0 0 1
value=NoConnection
T 29300 18300 5 10 0 0 0 0 1
device=DRC_Directive
}
